<?xml version="1.0" encoding="UTF-8" standalone="no"?>
<!-- Created with Inkscape (http://www.inkscape.org/) -->

<svg
   xmlns:dc="http://purl.org/dc/elements/1.1/"
   xmlns:cc="http://creativecommons.org/ns#"
   xmlns:rdf="http://www.w3.org/1999/02/22-rdf-syntax-ns#"
   xmlns:svg="http://www.w3.org/2000/svg"
   xmlns="http://www.w3.org/2000/svg"
   xmlns:sodipodi="http://sodipodi.sourceforge.net/DTD/sodipodi-0.dtd"
   xmlns:inkscape="http://www.inkscape.org/namespaces/inkscape"
   version="1.1"
   id="svg7125"
   xml:space="preserve"
   width="221.78604"
   height="252.66006"
   viewBox="0 0 221.78604 252.66005"
   sodipodi:docname="koch-flake-5.svg"
   inkscape:version="0.92.4 (5da689c313, 2019-01-14)"
   inkscape:export-filename="D:\Benutzer\Admin\Desktop\GITordner\spass-mit-fraktalen\Exporttests\ps-Dateien\koch-curve-flake\koch-flake-5.png"
   inkscape:export-xdpi="96"
   inkscape:export-ydpi="96"><metadata
     id="metadata7131"><rdf:RDF><cc:Work
         rdf:about=""><dc:format>image/svg+xml</dc:format><dc:type
           rdf:resource="http://purl.org/dc/dcmitype/StillImage" /><dc:title></dc:title></cc:Work></rdf:RDF></metadata><defs
     id="defs7129"><clipPath
       clipPathUnits="userSpaceOnUse"
       id="clipPath7143"><path
         d="m 513.059,1810.08 h 5101.37 V 6109.92 H 513.059 Z"
         id="path7141"
         inkscape:connector-curvature="0" /></clipPath></defs><sodipodi:namedview
     pagecolor="#ffffff"
     bordercolor="#666666"
     borderopacity="1"
     objecttolerance="10"
     gridtolerance="10"
     guidetolerance="10"
     inkscape:pageopacity="0"
     inkscape:pageshadow="2"
     inkscape:window-width="1920"
     inkscape:window-height="1017"
     id="namedview7127"
     showgrid="false"
     fit-margin-top="10"
     fit-margin-left="10"
     fit-margin-bottom="10"
     fit-margin-right="10"
     inkscape:zoom="3.4314881"
     inkscape:cx="110.89302"
     inkscape:cy="126.33003"
     inkscape:window-x="-8"
     inkscape:window-y="-8"
     inkscape:window-maximized="1"
     inkscape:current-layer="g7133" /><g
     id="g7133"
     inkscape:groupmode="layer"
     inkscape:label="ink_ext_XXXXXX"
     transform="matrix(1.3333333,0,0,-1.3333333,-300.10297,694.54668)"><g
       id="g7135"
       transform="scale(0.1)"><g
         id="g7137"><g
           id="g7139"
           clip-path="url(#clipPath7143)"><path
             d="m 2333.37,4694.12 h 18.5 l 9.25,16.02 9.25,-16.02 h 18.49 l 9.25,16.02 -9.25,16.02 h 18.5 l 9.25,16.01 9.25,-16.01 h 18.49 l -9.25,-16.02 9.25,-16.02 h 18.5 l 9.24,16.02 9.25,-16.02 h 18.5 l 9.25,16.02 -9.25,16.02 h 18.5 l 9.25,16.01 -9.25,16.02 h -18.5 l 9.25,16.02 -9.25,16.02 h 18.5 l 9.25,16.02 9.24,-16.02 h 18.5 l 9.25,16.02 -9.25,16.02 h 18.49 l 9.25,16.01 9.25,-16.01 h 18.5 l -9.25,-16.02 9.25,-16.02 h 18.49 l 9.25,16.02 9.25,-16.02 h 18.49 l -9.24,-16.02 9.24,-16.02"
             style="fill:none;stroke:#000000;stroke-width:14.98200035;stroke-linecap:round;stroke-linejoin:round;stroke-miterlimit:10;stroke-dasharray:none;stroke-opacity:1"
             id="path7145"
             inkscape:connector-curvature="0" /><path
             d="m 2666.3,4758.19 h -18.49 l -9.25,-16.02 9.25,-16.01 h 18.49 l -9.24,-16.02 9.24,-16.02 h 18.5 l 9.25,16.02 9.25,-16.02 h 18.5 l 9.24,16.02 -9.24,16.02 h 18.49 l 9.25,16.01 9.25,-16.01 h 18.5 l -9.25,-16.02 9.25,-16.02 h 18.49 l 9.25,16.02 9.25,-16.02 h 18.49 l 9.25,16.02 -9.25,16.02 h 18.5 l 9.25,16.01 -9.25,16.02 h -18.5 l 9.25,16.02 -9.25,16.02 h 18.5 l 9.25,16.02 9.25,-16.02 h 18.49 l 9.25,16.02 -9.25,16.02 h 18.5 l 9.25,16.01 -9.25,16.02 h -18.5 l 9.25,16.02 -9.25,16.02"
             style="fill:none;stroke:#000000;stroke-width:14.98200035;stroke-linecap:round;stroke-linejoin:round;stroke-miterlimit:10;stroke-dasharray:none;stroke-opacity:1"
             id="path7147"
             inkscape:connector-curvature="0" /><path
             d="m 2888.26,4886.34 h -18.49 l -9.25,-16.02 -9.25,16.02 h -18.5 l 9.25,16.02 -9.25,16.02 h 18.5 l 9.25,16.01 -9.25,16.02 h -18.5 l 9.25,16.02 -9.25,16.02 h 18.5 l 9.25,16.01 9.25,-16.01 h 18.49 l 9.25,16.01 -9.25,16.02 h 18.5 l 9.25,16.02 9.24,-16.02 h 18.5 l -9.25,-16.02 9.25,-16.01 h 18.5 l 9.25,16.01 9.24,-16.01 h 18.5 l 9.25,16.01 -9.25,16.02 h 18.49 l 9.25,16.02 -9.25,16.02 h -18.49 l 9.25,16.02 -9.25,16.02 h 18.49 l 9.25,16.01 9.25,-16.01 h 18.5 l 9.25,16.01 -9.25,16.02"
             style="fill:none;stroke:#000000;stroke-width:14.98200035;stroke-linecap:round;stroke-linejoin:round;stroke-miterlimit:10;stroke-dasharray:none;stroke-opacity:1"
             id="path7149"
             inkscape:connector-curvature="0" /><path
             d="m 3054.73,5110.59 h 18.5 l 9.24,16.02 9.25,-16.02 h 18.5 l -9.25,-16.02 9.25,-16.01 h 18.49 l 9.25,16.01 9.25,-16.01 h 18.5 l -9.25,-16.02 9.25,-16.02 h -18.5 l -9.25,-16.02 9.25,-16.02 h 18.5 l -9.25,-16.02 9.25,-16.01 h 18.49 l 9.25,16.01 9.25,-16.01 h 18.5 l 9.25,16.01 -9.25,16.02 h 18.49 l 9.25,16.02 9.25,-16.02 h 18.49 l -9.24,-16.02 9.24,-16.01 h 18.5 l 9.25,16.01 9.25,-16.01 h 18.49 l -9.24,-16.02 9.24,-16.02 h -18.49 l -9.25,-16.02 9.25,-16.01 h 18.49 l -9.24,-16.02 9.24,-16.02"
             style="fill:none;stroke:#000000;stroke-width:14.98200035;stroke-linecap:round;stroke-linejoin:round;stroke-miterlimit:10;stroke-dasharray:none;stroke-opacity:1"
             id="path7151"
             inkscape:connector-curvature="0" /><path
             d="m 3332.17,4886.34 h -18.49 l -9.25,-16.02 -9.25,16.02 h -18.5 l -9.24,-16.02 9.24,-16.02 h -18.49 l -9.25,-16.02 9.25,-16.01 h 18.49 l -9.24,-16.02 9.24,-16.02 h 18.5 l 9.25,16.02 9.25,-16.02 h 18.49 l -9.24,-16.02 9.24,-16.02 h -18.49 l -9.25,-16.02 9.25,-16.01 h 18.49 l -9.24,-16.02 9.24,-16.02 h 18.5 l 9.25,16.02 9.24,-16.02 h 18.5 l 9.25,16.02 -9.25,16.02 h 18.5 l 9.25,16.01 9.25,-16.01 h 18.49 l -9.25,-16.02 9.25,-16.02 h 18.5 l 9.24,16.02 9.25,-16.02 h 18.5 l 9.25,16.02 -9.25,16.02"
             style="fill:none;stroke:#000000;stroke-width:14.98200035;stroke-linecap:round;stroke-linejoin:round;stroke-miterlimit:10;stroke-dasharray:none;stroke-opacity:1"
             id="path7153"
             inkscape:connector-curvature="0" /><path
             d="m 3498.64,4726.16 h 18.5 l 9.24,16.01 -9.24,16.02 h -18.5 l 9.25,16.02 -9.25,16.02 h 18.5 l 9.24,16.02 9.25,-16.02 h 18.5 l 9.25,16.02 -9.25,16.02 h 18.5 l 9.24,16.01 9.25,-16.01 h 18.5 l -9.25,-16.02 9.25,-16.02 h 18.49 l 9.25,16.02 9.25,-16.02 h 18.5 l -9.25,-16.02 9.25,-16.02 h -18.5 l -9.25,-16.02 9.25,-16.01 h 18.5 l -9.25,-16.02 9.25,-16.02 h 18.49 l 9.25,16.02 9.25,-16.02 h 18.49 l 9.25,16.02 -9.25,16.02 h 18.5 l 9.25,16.01 9.25,-16.01 h 18.5 l -9.25,-16.02 9.25,-16.02"
             style="fill:none;stroke:#000000;stroke-width:14.98200035;stroke-linecap:round;stroke-linejoin:round;stroke-miterlimit:10;stroke-dasharray:none;stroke-opacity:1"
             id="path7155"
             inkscape:connector-curvature="0" /><path
             d="m 3776.09,4694.12 h 18.49 l 9.25,16.02 9.25,-16.02 h 18.49 l -9.25,-16.02 9.25,-16.02 h -18.49 l -9.25,-16.02 9.25,-16.01 h 18.49 l -9.25,-16.02 9.25,-16.02 h -18.49 l -9.25,-16.02 -9.25,16.02 h -18.49 l -9.25,-16.02 9.25,-16.02 h -18.5 l -9.25,-16.02 9.25,-16.01 h 18.5 l -9.25,-16.02 9.25,-16.02 h 18.49 l 9.25,16.02 9.25,-16.02 h 18.49 l -9.25,-16.02 9.25,-16.02 h -18.49 l -9.25,-16.02 9.25,-16.01 h 18.49 l -9.25,-16.02 9.25,-16.02 h -18.49 l -9.25,-16.02 -9.25,16.02 h -18.49 l -9.25,-16.02 9.25,-16.02"
             style="fill:none;stroke:#000000;stroke-width:14.98200035;stroke-linecap:round;stroke-linejoin:round;stroke-miterlimit:10;stroke-dasharray:none;stroke-opacity:1"
             id="path7157"
             inkscape:connector-curvature="0" /><path
             d="m 3776.09,4373.75 h -18.5 l -9.25,-16.02 -9.25,16.02 h -18.5 l 9.25,16.02 -9.25,16.02 h -18.49 l -9.25,-16.02 -9.25,16.02 h -18.49 l -9.25,-16.02 9.25,-16.02 h -18.5 l -9.25,-16.02 9.25,-16.02 h 18.5 l -9.25,-16.01 9.25,-16.02 h -18.5 l -9.25,-16.02 -9.25,16.02 h -18.49 l -9.25,-16.02 9.25,-16.02 h -18.5 l -9.25,-16.01 9.25,-16.02 h 18.5 l -9.25,-16.02 9.25,-16.02 h 18.49 l 9.25,16.02 9.25,-16.02 h 18.5 l -9.25,-16.02 9.25,-16.01 h -18.5 l -9.25,-16.02 9.25,-16.02 h 18.5 l -9.25,-16.02 9.25,-16.02"
             style="fill:none;stroke:#000000;stroke-width:14.98200035;stroke-linecap:round;stroke-linejoin:round;stroke-miterlimit:10;stroke-dasharray:none;stroke-opacity:1"
             id="path7159"
             inkscape:connector-curvature="0" /><path
             d="m 3665.11,4117.46 h 18.49 l 9.25,16.02 9.25,-16.02 h 18.49 l 9.25,16.02 -9.25,16.02 h 18.5 l 9.25,16.02 9.25,-16.02 h 18.5 l -9.25,-16.02 9.25,-16.02 h 18.49 l 9.25,16.02 9.25,-16.02 h 18.49 l -9.25,-16.02 9.25,-16.01 h -18.49 l -9.25,-16.02 9.25,-16.02 h 18.49 l -9.25,-16.02 9.25,-16.02 h -18.49 l -9.25,-16.02 -9.25,16.02 h -18.49 l -9.25,-16.02 9.25,-16.01 h -18.5 l -9.25,-16.02 9.25,-16.02 h 18.5 l -9.25,-16.02 9.25,-16.02 h 18.49 l 9.25,16.02 9.25,-16.02 h 18.49 l -9.25,-16.02 9.25,-16.02"
             style="fill:none;stroke:#000000;stroke-width:14.98200035;stroke-linecap:round;stroke-linejoin:round;stroke-miterlimit:10;stroke-dasharray:none;stroke-opacity:1"
             id="path7161"
             inkscape:connector-curvature="0" /><path
             d="m 3831.57,3893.2 h -18.49 l -9.25,-16.01 9.25,-16.02 h 18.49 l -9.25,-16.02 9.25,-16.02 h -18.49 l -9.25,-16.02 -9.25,16.02 h -18.49 l -9.25,-16.02 9.25,-16.02 h -18.5 l -9.25,-16.01 -9.25,16.01 h -18.5 l 9.25,16.02 -9.25,16.02 h -18.49 l -9.25,-16.02 -9.25,16.02 h -18.49 l -9.25,-16.02 9.25,-16.02 h -18.5 l -9.25,-16.01 9.25,-16.02 h 18.5 l -9.25,-16.02 9.25,-16.02 h -18.5 l -9.25,-16.02 -9.25,16.02 h -18.49 l -9.25,-16.02 9.25,-16.02 h -18.5 l -9.25,-16.01 -9.24,16.01 h -18.5 l 9.25,16.02 -9.25,16.02"
             style="fill:none;stroke:#000000;stroke-width:14.98200035;stroke-linecap:round;stroke-linejoin:round;stroke-miterlimit:10;stroke-dasharray:none;stroke-opacity:1"
             id="path7163"
             inkscape:connector-curvature="0" /><path
             d="m 3554.13,3733.02 h -18.5 l -9.25,-16.02 -9.24,16.02 h -18.5 l 9.25,16.02 -9.25,16.02 h 18.5 l 9.24,16.02 -9.24,16.01 h -18.5 l 9.25,16.02 -9.25,16.02 h -18.5 l -9.25,-16.02 -9.24,16.02 h -18.5 l -9.25,-16.02 9.25,-16.02 h -18.49 l -9.25,-16.01 -9.25,16.01 h -18.5 l 9.25,16.02 -9.25,16.02 h -18.5 l -9.24,-16.02 -9.25,16.02 h -18.5 l -9.24,-16.02 9.24,-16.02 h -18.49 l -9.25,-16.01 9.25,-16.02 h 18.49 l -9.24,-16.02 9.24,-16.02 h -18.49 l -9.25,-16.02 -9.25,16.02 h -18.5 l -9.24,-16.02 9.24,-16.02"
             style="fill:none;stroke:#000000;stroke-width:14.98200035;stroke-linecap:round;stroke-linejoin:round;stroke-miterlimit:10;stroke-dasharray:none;stroke-opacity:1"
             id="path7165"
             inkscape:connector-curvature="0" /><path
             d="m 3276.68,3700.98 h -18.49 l -9.25,-16.01 9.25,-16.02 h 18.49 l -9.24,-16.02 9.24,-16.02 h 18.5 l 9.25,16.02 9.25,-16.02 h 18.49 l -9.24,-16.02 9.24,-16.01 h -18.49 l -9.25,-16.02 9.25,-16.02 h 18.49 l -9.24,-16.02 9.24,-16.02 h -18.49 l -9.25,-16.01 -9.25,16.01 h -18.5 l -9.24,-16.01 9.24,-16.02 h -18.49 l -9.25,-16.02 -9.25,16.02 h -18.49 l 9.25,16.02 -9.25,16.01 h -18.5 l -9.25,-16.01 -9.25,16.01 h -18.49 l -9.25,-16.01 9.25,-16.02 h -18.5 l -9.25,-16.02 9.25,-16.02 h 18.5 l -9.25,-16.02 9.25,-16.01"
             style="fill:none;stroke:#000000;stroke-width:14.98200035;stroke-linecap:round;stroke-linejoin:round;stroke-miterlimit:10;stroke-dasharray:none;stroke-opacity:1"
             id="path7167"
             inkscape:connector-curvature="0" /><path
             d="m 3165.71,3444.7 h -18.5 l -9.25,-16.02 -9.25,16.02 h -18.49 l -9.25,-16.02 9.25,-16.02 h -18.5 l -9.25,-16.02 -9.24,16.02 h -18.5 l 9.25,16.02 -9.25,16.02 h -18.5 l -9.25,-16.02 -9.25,16.02 h -18.49 l 9.25,16.01 -9.25,16.02 h 18.49 l 9.25,16.02 -9.25,16.02 h -18.49 l 9.25,16.02 -9.25,16.01 h -18.5 l -9.24,-16.01 -9.25,16.01 h -18.5 l -9.25,-16.01 9.25,-16.02 h -18.5 l -9.24,-16.02 -9.25,16.02 h -18.5 l 9.25,16.02 -9.25,16.01 h -18.49 l -9.25,-16.01 -9.25,16.01 h -18.5 l 9.25,16.02 -9.25,16.02"
             style="fill:none;stroke:#000000;stroke-width:14.98200035;stroke-linecap:round;stroke-linejoin:round;stroke-miterlimit:10;stroke-dasharray:none;stroke-opacity:1"
             id="path7169"
             inkscape:connector-curvature="0" /><path
             d="m 2832.77,3572.84 h 18.5 l 9.25,16.02 -9.25,16.02 h -18.5 l 9.25,16.01 -9.25,16.02 h 18.5 l 9.25,16.02 9.25,-16.02 h 18.49 l 9.25,16.02 -9.25,16.02 h 18.5 l 9.25,16.02 -9.25,16.01 h -18.5 l 9.25,16.02 -9.25,16.02 h -18.49 l -9.25,-16.02 -9.25,16.02 h -18.5 l 9.25,16.02 -9.25,16.02 h 18.5 l 9.25,16.02 -9.25,16.01 h -18.5 l 9.25,16.02 -9.25,16.02 h -18.49 l -9.25,-16.02 -9.25,16.02 h -18.49 l -9.25,-16.02 9.25,-16.02 h -18.5 l -9.25,-16.01 -9.25,16.01 h -18.49 l 9.24,16.02 -9.24,16.02"
             style="fill:none;stroke:#000000;stroke-width:14.98200035;stroke-linecap:round;stroke-linejoin:round;stroke-miterlimit:10;stroke-dasharray:none;stroke-opacity:1"
             id="path7171"
             inkscape:connector-curvature="0" /><path
             d="m 2721.8,3829.13 h -18.5 l -9.25,-16.02 -9.25,16.02 h -18.5 l -9.24,-16.02 9.24,-16.02 h -18.49 l -9.25,-16.01 9.25,-16.02 h 18.49 l -9.24,-16.02 9.24,-16.02 h -18.49 l -9.25,-16.02 -9.25,16.02 h -18.49 l -9.25,-16.02 9.25,-16.02 h -18.5 l -9.25,-16.01 -9.25,16.01 h -18.49 l 9.25,16.02 -9.25,16.02 h -18.5 l -9.24,-16.02 -9.25,16.02 h -18.5 l 9.25,16.02 -9.25,16.02 h 18.5 l 9.25,16.02 -9.25,16.01 h -18.5 l 9.25,16.02 -9.25,16.02 h -18.5 l -9.25,-16.02 -9.24,16.02 h -18.5 l -9.25,-16.02 9.25,-16.02"
             style="fill:none;stroke:#000000;stroke-width:14.98200035;stroke-linecap:round;stroke-linejoin:round;stroke-miterlimit:10;stroke-dasharray:none;stroke-opacity:1"
             id="path7173"
             inkscape:connector-curvature="0" /><path
             d="m 2444.35,3797.09 h -18.49 l -9.25,-16.01 -9.25,16.01 h -18.5 l 9.25,16.02 -9.25,16.02 h -18.49 l -9.25,-16.02 -9.25,16.02 h -18.5 l 9.25,16.02 -9.25,16.02 h 18.5 l 9.25,16.02 -9.25,16.01 h -18.5 l 9.25,16.02 -9.25,16.02 h 18.5 l 9.25,16.02 9.25,-16.02 h 18.49 l 9.25,16.02 -9.25,16.02 h 18.5 l 9.25,16.02 -9.25,16.02 h -18.5 l 9.25,16.01 -9.25,16.02 h -18.49 l -9.25,-16.02 -9.25,16.02 h -18.5 l 9.25,16.02 -9.25,16.02 h 18.5 l 9.25,16.02 -9.25,16.02 h -18.5 l 9.25,16.01 -9.25,16.02"
             style="fill:none;stroke:#000000;stroke-width:14.98200035;stroke-linecap:round;stroke-linejoin:round;stroke-miterlimit:10;stroke-dasharray:none;stroke-opacity:1"
             id="path7175"
             inkscape:connector-curvature="0" /><path
             d="m 2333.37,4117.46 h 18.5 l 9.25,16.02 9.25,-16.02 h 18.49 l 9.25,16.02 -9.25,16.02 h 18.5 l 9.25,16.02 9.25,-16.02 h 18.49 l -9.25,-16.02 9.25,-16.02 h 18.5 l 9.24,16.02 9.25,-16.02 h 18.5 l 9.25,16.02 -9.25,16.02 h 18.5 l 9.25,16.02 -9.25,16.02 h -18.5 l 9.25,16.01 -9.25,16.02 h 18.5 l 9.25,16.02 9.24,-16.02 h 18.5 l 9.25,16.02 -9.25,16.02 h 18.49 l 9.25,16.02 -9.25,16.01 h -18.49 l 9.25,16.02 -9.25,16.02 h -18.5 l -9.24,-16.02 -9.25,16.02 h -18.5 l 9.25,16.02 -9.25,16.01"
             style="fill:none;stroke:#000000;stroke-width:14.98200035;stroke-linecap:round;stroke-linejoin:round;stroke-miterlimit:10;stroke-dasharray:none;stroke-opacity:1"
             id="path7177"
             inkscape:connector-curvature="0" /><path
             d="m 2499.84,4341.71 h 18.5 l 9.25,16.02 -9.25,16.02 h -18.5 l 9.25,16.02 -9.25,16.02 h -18.5 l -9.25,-16.02 -9.24,16.02 h -18.5 l -9.25,-16.02 9.25,-16.02 h -18.49 l -9.25,-16.02 -9.25,16.02 h -18.5 l 9.25,16.02 -9.25,16.02 h -18.49 l -9.25,-16.02 -9.25,16.02 h -18.5 l 9.25,16.02 -9.25,16.02 h 18.5 l 9.25,16.01 -9.25,16.02 h -18.5 l 9.25,16.02 -9.25,16.02 h 18.5 l 9.25,16.02 9.25,-16.02 h 18.49 l 9.25,16.02 -9.25,16.02 h 18.5 l 9.25,16.01 -9.25,16.02 h -18.5 l 9.25,16.02 -9.25,16.02"
             style="fill:none;stroke:#000000;stroke-width:14.98200035;stroke-linecap:round;stroke-linejoin:round;stroke-miterlimit:10;stroke-dasharray:none;stroke-opacity:1"
             id="path7179"
             inkscape:connector-curvature="0" /><path
             d="m 2388.86,4598.01 h -18.49 l -9.25,-16.02 -9.25,16.02 h -18.5 l 9.25,16.02 -9.25,16.02 h 18.5 l 9.25,16.01 -9.25,16.02 h -18.5 l 9.25,16.02 -9.25,16.02"
             style="fill:none;stroke:#000000;stroke-width:14.98200035;stroke-linecap:round;stroke-linejoin:round;stroke-miterlimit:10;stroke-dasharray:none;stroke-opacity:1"
             id="path7181"
             inkscape:connector-curvature="0" /></g></g></g></g></svg>