<?xml version="1.0" encoding="UTF-8" standalone="no"?>
<!-- Created with Inkscape (http://www.inkscape.org/) -->

<svg
   xmlns:dc="http://purl.org/dc/elements/1.1/"
   xmlns:cc="http://creativecommons.org/ns#"
   xmlns:rdf="http://www.w3.org/1999/02/22-rdf-syntax-ns#"
   xmlns:svg="http://www.w3.org/2000/svg"
   xmlns="http://www.w3.org/2000/svg"
   xmlns:sodipodi="http://sodipodi.sourceforge.net/DTD/sodipodi-0.dtd"
   xmlns:inkscape="http://www.inkscape.org/namespaces/inkscape"
   version="1.1"
   id="svg1505"
   xml:space="preserve"
   width="418.05347"
   height="418.05212"
   viewBox="0 0 418.05347 418.05211"
   sodipodi:docname="koch-viereckig5it.svg"
   inkscape:version="0.92.4 (5da689c313, 2019-01-14)"><metadata
     id="metadata1511"><rdf:RDF><cc:Work
         rdf:about=""><dc:format>image/svg+xml</dc:format><dc:type
           rdf:resource="http://purl.org/dc/dcmitype/StillImage" /><dc:title></dc:title></cc:Work></rdf:RDF></metadata><defs
     id="defs1509"><clipPath
       clipPathUnits="userSpaceOnUse"
       id="clipPath1523"><path
         d="m 513.059,1810.08 h 5101.37 V 6109.92 H 513.059 Z"
         id="path1521"
         inkscape:connector-curvature="0" /></clipPath></defs><sodipodi:namedview
     pagecolor="#ffffff"
     bordercolor="#666666"
     borderopacity="1"
     objecttolerance="10"
     gridtolerance="10"
     guidetolerance="10"
     inkscape:pageopacity="0"
     inkscape:pageshadow="2"
     inkscape:window-width="1920"
     inkscape:window-height="1017"
     id="namedview1507"
     showgrid="false"
     fit-margin-top="10"
     fit-margin-left="10"
     fit-margin-bottom="10"
     fit-margin-right="10"
     inkscape:zoom="2.0739041"
     inkscape:cx="209.02673"
     inkscape:cy="209.02606"
     inkscape:window-x="-8"
     inkscape:window-y="-8"
     inkscape:window-maximized="1"
     inkscape:current-layer="g1513" /><g
     id="g1513"
     inkscape:groupmode="layer"
     inkscape:label="ink_ext_XXXXXX"
     transform="matrix(1.3333333,0,0,-1.3333333,-201.96993,735.02872)"><g
       id="g1515"
       transform="scale(0.1)"><g
         id="g1517"><g
           id="g1519"
           clip-path="url(#clipPath1523)"><path
             d="m 2333.37,4694.12 h 18.5 v 18.49 h 18.5 v -18.49 h 18.49 v 18.49 h -18.49 v 18.5 h 18.49 v 18.5 h 18.5 v 18.5 h 18.5 v -18.5 h 18.49 v -18.5 h 18.5 v -18.5 h -18.5 v -18.49 h 18.5 v 18.49 h 18.49 v -18.49 h 18.5 v 18.49 h -18.5 v 18.5 h 18.5 v 18.5 h -18.5 v -18.5 h -18.49 v 18.5 h -18.5 v 18.5 h -18.49 v 18.49 h 18.49 v 18.5 h 18.5 v 18.49"
             style="fill:none;stroke:#000000;stroke-width:7.49100018;stroke-linecap:round;stroke-linejoin:round;stroke-miterlimit:10;stroke-dasharray:none;stroke-opacity:1"
             id="path1525"
             inkscape:connector-curvature="0" /><path
             d="m 2462.85,4823.59 h 18.49 v -18.49 h 18.5 v 18.49 h -18.5 v 18.5 h 18.5 v 18.5 h 18.5 v 18.49 h 18.49 v -18.49 h 18.5 v 18.49 h -18.5 v 18.5 h 18.5 v 18.49 h 18.49 v 18.5 h 18.5 v -18.5 h 18.5 v -18.49 h 18.49 v -18.5 h -18.49 v -18.49 h 18.49 v 18.49 h 18.5 v -18.49 h 18.49 v -18.5 h 18.5 v -18.5 h -18.5 v -18.49 h 18.5 v 18.49 h 18.5 v -18.49"
             style="fill:none;stroke:#000000;stroke-width:7.49100018;stroke-linecap:round;stroke-linejoin:round;stroke-miterlimit:10;stroke-dasharray:none;stroke-opacity:1"
             id="path1527"
             inkscape:connector-curvature="0" /><path
             d="m 2703.3,4805.1 h 18.5 v -18.5 h 18.49 v -18.49 h -18.49 v -18.5 h -18.5 v -18.5 h -18.5 v 18.5 h -18.5 v -18.5 h 18.5 v -18.5 h -18.5 v -18.49 h 18.5 v 18.49 h 18.5 v -18.49 h 18.5 v 18.49 h -18.5 v 18.5 h 18.5 v 18.5 h 18.49 v 18.5 h 18.5 v -18.5 h 18.5 v -18.5 h 18.49 v -18.5 h -18.49 v -18.49 h 18.49 v 18.49 h 18.5 v -18.49 h 18.49 v 18.49"
             style="fill:none;stroke:#000000;stroke-width:7.49100018;stroke-linecap:round;stroke-linejoin:round;stroke-miterlimit:10;stroke-dasharray:none;stroke-opacity:1"
             id="path1529"
             inkscape:connector-curvature="0" /><path
             d="m 2832.77,4712.61 h -18.49 v 18.5 h 18.49 v 18.5 h -18.49 v -18.5 h -18.5 v 18.5 h -18.49 v 18.5 h -18.5 v 18.49 h 18.5 v 18.5 h 18.49 v 18.49 h 18.5 v -18.49 h 18.49 v 18.49 h -18.49 v 18.5 h 18.49 v 18.5 h -18.49 v -18.5 h -18.5 v 18.5 h -18.49 v -18.5 h 18.49 v -18.5 h -18.49 v -18.49 h -18.5 v -18.5 h -18.5 v 18.5 h -18.49 v 18.49 h -18.5 v 18.5"
             style="fill:none;stroke:#000000;stroke-width:7.49100018;stroke-linecap:round;stroke-linejoin:round;stroke-miterlimit:10;stroke-dasharray:none;stroke-opacity:1"
             id="path1531"
             inkscape:connector-curvature="0" /><path
             d="m 2703.3,4842.09 h 18.5 v 18.5 h -18.5 v -18.5 h -18.5 v 18.5 h -18.5 v 18.49 h -18.49 v 18.5 h 18.49 v 18.49 h -18.49 v -18.49 h -18.5 v 18.49 h -18.49 v 18.5 h -18.5 v 18.5 h 18.5 v 18.49 h 18.49 v 18.5 h 18.5 v -18.5 h 18.49 v 18.5 h -18.49 v 18.49 h 18.49 v 18.5 h 18.5 v 18.5 h 18.5 v -18.5 h 18.5 v 18.5 h -18.5 v 18.49 h 18.5 v 18.5"
             style="fill:none;stroke:#000000;stroke-width:7.49100018;stroke-linecap:round;stroke-linejoin:round;stroke-miterlimit:10;stroke-dasharray:none;stroke-opacity:1"
             id="path1533"
             inkscape:connector-curvature="0" /><path
             d="m 2721.8,5082.54 h 18.49 v 18.5 h 18.5 v -18.5 h 18.5 v -18.5 h 18.49 v -18.49 h -18.49 v -18.5 h 18.49 v 18.5 h 18.5 v -18.5 h 18.49 v 18.5 h -18.49 v 18.49 h 18.49 v 18.5 h -18.49 v -18.5 h -18.5 v 18.5 h -18.49 v 18.5 h -18.5 v 18.5 h 18.5 v 18.49 h 18.49 v 18.5 h 18.5 v -18.5 h 18.49 v 18.5 h -18.49 v 18.49 h 18.49 v 18.5 h 18.5 v 18.5"
             style="fill:none;stroke:#000000;stroke-width:7.49100018;stroke-linecap:round;stroke-linejoin:round;stroke-miterlimit:10;stroke-dasharray:none;stroke-opacity:1"
             id="path1535"
             inkscape:connector-curvature="0" /><path
             d="m 2851.27,5212.02 h 18.5 v -18.5 h 18.49 v 18.5 h -18.49 v 18.49 h 18.49 v 18.5 h 18.5 v 18.49 h 18.49 v -18.49 h 18.5 v -18.5 h 18.5 v -18.49 h -18.5 v -18.5 h 18.5 v 18.5 h 18.49 v -18.5 h 18.5 v 18.5 h -18.5 v 18.49 h 18.5 v 18.5 h -18.5 v -18.5 h -18.49 v 18.5 h -18.5 v 18.49 h -18.5 v 18.5 h 18.5 v 18.5 h 18.5 v 18.49 h 18.49 v -18.49"
             style="fill:none;stroke:#000000;stroke-width:7.49100018;stroke-linecap:round;stroke-linejoin:round;stroke-miterlimit:10;stroke-dasharray:none;stroke-opacity:1"
             id="path1537"
             inkscape:connector-curvature="0" /><path
             d="m 2980.74,5304.5 h 18.5 v 18.49 h -18.5 v 18.5 h 18.5 v 18.49 h 18.49 v 18.5 h 18.5 v -18.5 h 18.5 v 18.5 h -18.5 v 18.5 h 18.5 v 18.49 h 18.5 v 18.5 h 18.49 v -18.5 h 18.5 v -18.49 h 18.49 v -18.5 h -18.49 v -18.5 h 18.49 v 18.5 h 18.5 v -18.5 h 18.5 v -18.49 h 18.49 v -18.5 h -18.49 v -18.49 h 18.49 v 18.49 h 18.5 v -18.49 h 18.5 V 5286"
             style="fill:none;stroke:#000000;stroke-width:7.49100018;stroke-linecap:round;stroke-linejoin:round;stroke-miterlimit:10;stroke-dasharray:none;stroke-opacity:1"
             id="path1539"
             inkscape:connector-curvature="0" /><path
             d="m 3221.2,5286 h 18.49 v -18.5 h -18.49 v -18.49 h -18.5 v -18.5 h -18.5 v 18.5 h -18.49 v -18.5 h 18.49 v -18.49 h -18.49 v -18.5 h 18.49 v 18.5 h 18.5 v -18.5 h 18.5 v 18.5 h -18.5 v 18.49 h 18.5 v 18.5 h 18.49 v 18.49 h 18.5 v -18.49 h 18.49 v -18.5 h 18.5 v -18.49 h -18.5 v -18.5 h 18.5 v 18.5 h 18.5 v -18.5 h 18.49 v -18.5 h 18.5 v -18.49"
             style="fill:none;stroke:#000000;stroke-width:7.49100018;stroke-linecap:round;stroke-linejoin:round;stroke-miterlimit:10;stroke-dasharray:none;stroke-opacity:1"
             id="path1541"
             inkscape:connector-curvature="0" /><path
             d="m 3350.67,5156.53 h -18.5 v -18.5 h 18.5 v 18.5 h 18.49 v -18.5 h 18.5 v -18.49 h 18.5 v -18.5 h -18.5 v -18.5 h -18.5 v -18.5 h -18.49 v 18.5 h -18.5 v -18.5 h 18.5 v -18.49 h -18.5 v -18.5 h 18.5 v 18.5 h 18.49 v -18.5 h 18.5 v 18.5 h -18.5 v 18.49 h 18.5 v 18.5 h 18.5 v 18.5 h 18.5 v -18.5 h 18.49 v -18.5 h 18.5 v -18.49 h -18.5 v -18.5"
             style="fill:none;stroke:#000000;stroke-width:7.49100018;stroke-linecap:round;stroke-linejoin:round;stroke-miterlimit:10;stroke-dasharray:none;stroke-opacity:1"
             id="path1543"
             inkscape:connector-curvature="0" /><path
             d="m 3443.15,5027.05 h 18.5 v 18.5 h 18.49 v -18.5 h 18.5 v -18.5 h 18.5 v -18.49 h -18.5 v -18.5 h 18.5 v 18.5 h 18.49 v -18.5 h 18.5 v -18.49 h 18.5 v -18.5 h -18.5 v -18.5 h -18.5 v -18.49 h -18.49 v 18.49 h -18.5 v -18.49 h 18.5 v -18.5 h -18.5 v -18.49 h -18.5 v -18.5 h -18.49 v 18.5 h -18.5 v -18.5 h 18.5 v -18.5 h -18.5 v -18.49 h -18.49 v -18.5"
             style="fill:none;stroke:#000000;stroke-width:7.49100018;stroke-linecap:round;stroke-linejoin:round;stroke-miterlimit:10;stroke-dasharray:none;stroke-opacity:1"
             id="path1545"
             inkscape:connector-curvature="0" /><path
             d="m 3424.66,4786.6 h -18.5 v 18.5 h -18.5 v 18.49 h -18.5 v 18.5 h 18.5 v 18.5 h -18.5 v -18.5 h -18.49 v 18.5 h -18.5 v -18.5 h 18.5 v -18.5 h -18.5 v -18.49 h 18.5 v 18.49 h 18.49 v -18.49 h 18.5 v -18.5 h 18.5 v -18.49 h -18.5 v -18.5 h -18.5 v -18.5 h -18.49 v 18.5 h -18.5 v -18.5 h 18.5 v -18.5 h -18.5 v -18.49 h 18.5 v 18.49 h 18.49 v -18.49"
             style="fill:none;stroke:#000000;stroke-width:7.49100018;stroke-linecap:round;stroke-linejoin:round;stroke-miterlimit:10;stroke-dasharray:none;stroke-opacity:1"
             id="path1547"
             inkscape:connector-curvature="0" /><path
             d="m 3369.16,4694.12 h 18.5 v 18.49 h -18.5 v 18.5 h 18.5 v 18.5 h 18.5 v 18.5 h 18.5 v -18.5 h 18.49 v -18.5 h 18.5 v -18.5 h -18.5 v -18.49 h 18.5 v 18.49 h 18.49 v -18.49 h 18.5 v 18.49 h -18.5 v 18.5 h 18.5 v 18.5 h -18.5 v -18.5 h -18.49 v 18.5 h -18.5 v 18.5 h -18.49 v 18.49 h 18.49 v 18.5 h 18.5 v 18.49 h 18.49 v -18.49 h 18.5 v 18.49"
             style="fill:none;stroke:#000000;stroke-width:7.49100018;stroke-linecap:round;stroke-linejoin:round;stroke-miterlimit:10;stroke-dasharray:none;stroke-opacity:1"
             id="path1549"
             inkscape:connector-curvature="0" /><path
             d="m 3498.64,4823.59 h -18.5 v 18.5 h 18.5 v 18.5 h 18.5 v 18.49 h 18.49 v -18.49 h 18.5 v 18.49 h -18.5 v 18.5 h 18.5 v 18.49 h 18.5 v 18.5 h 18.49 v -18.5 h 18.5 v -18.49 h 18.49 v -18.5 h -18.49 v -18.49 h 18.49 v 18.49 h 18.5 v -18.49 h 18.5 v -18.5 h 18.49 v -18.5 h -18.49 v -18.49 h 18.49 v 18.49 h 18.5 v -18.49 h 18.49 v -18.5 h 18.5 v -18.49"
             style="fill:none;stroke:#000000;stroke-width:7.49100018;stroke-linecap:round;stroke-linejoin:round;stroke-miterlimit:10;stroke-dasharray:none;stroke-opacity:1"
             id="path1551"
             inkscape:connector-curvature="0" /><path
             d="m 3739.09,4768.11 h -18.5 v -18.5 h -18.49 v -18.5 h -18.5 v 18.5 h -18.49 v -18.5 h 18.49 v -18.5 h -18.49 v -18.49 h 18.49 v 18.49 h 18.5 v -18.49 h 18.49 v 18.49 h -18.49 v 18.5 h 18.49 v 18.5 h 18.5 v 18.5 h 18.5 v -18.5 h 18.5 v -18.5 h 18.49 v -18.5 h -18.49 v -18.49 h 18.49 v 18.49 h 18.5 v -18.49 h 18.49 v -18.5 h 18.5 v -18.49 h -18.5 v -18.5"
             style="fill:none;stroke:#000000;stroke-width:7.49100018;stroke-linecap:round;stroke-linejoin:round;stroke-miterlimit:10;stroke-dasharray:none;stroke-opacity:1"
             id="path1553"
             inkscape:connector-curvature="0" /><path
             d="m 3831.57,4638.63 h 18.5 v 18.5 h 18.5 v -18.5 h 18.49 v -18.5 h 18.5 v -18.49 h -18.5 v -18.5 h -18.49 v -18.5 h -18.5 v 18.5 h -18.5 v -18.5 h 18.5 v -18.49 h -18.5 v -18.5 h 18.5 v 18.5 h 18.5 v -18.5 h 18.49 v 18.5 h -18.49 v 18.49 h 18.49 v 18.5 h 18.5 v 18.5 h 18.49 v -18.5 h 18.5 v -18.5 h 18.5 v -18.49 h -18.5 v -18.5 h 18.5 v 18.5"
             style="fill:none;stroke:#000000;stroke-width:7.49100018;stroke-linecap:round;stroke-linejoin:round;stroke-miterlimit:10;stroke-dasharray:none;stroke-opacity:1"
             id="path1555"
             inkscape:connector-curvature="0" /><path
             d="m 3961.05,4546.15 h 18.49 v -18.5 h 18.5 v -18.49 h 18.5 v -18.5 h -18.5 v -18.5 h 18.5 v 18.5 h 18.49 v -18.5 h 18.5 v -18.49 h 18.49 v -18.5 h -18.49 v -18.49 h -18.5 v -18.5 h -18.49 v 18.5 h -18.5 v -18.5 h 18.5 v -18.5 h -18.5 v -18.5 h -18.5 v -18.49 h -18.49 v 18.49 h -18.5 v -18.49 h 18.5 v -18.5 h -18.5 v -18.49 h -18.5 v -18.5 h -18.49 v 18.5"
             style="fill:none;stroke:#000000;stroke-width:7.49100018;stroke-linecap:round;stroke-linejoin:round;stroke-miterlimit:10;stroke-dasharray:none;stroke-opacity:1"
             id="path1557"
             inkscape:connector-curvature="0" /><path
             d="m 3905.56,4305.7 h -18.5 v 18.49 h -18.49 v 18.5 h 18.49 v 18.49 h -18.49 v -18.49 h -18.5 v 18.49 h -18.5 v -18.49 h 18.5 v -18.5 h -18.5 v -18.49 h 18.5 v 18.49 h 18.5 v -18.49 h 18.49 v -18.5 h 18.5 v -18.5 h -18.5 v -18.49 h -18.49 v -18.5 h -18.5 v 18.5 h -18.5 v -18.5 h 18.5 v -18.5 h -18.5 v -18.49 h 18.5 v 18.49 h 18.5 v -18.49 h 18.49 v 18.49"
             style="fill:none;stroke:#000000;stroke-width:7.49100018;stroke-linecap:round;stroke-linejoin:round;stroke-miterlimit:10;stroke-dasharray:none;stroke-opacity:1"
             id="path1559"
             inkscape:connector-curvature="0" /><path
             d="m 3887.06,4213.21 h -18.49 v 18.5 h 18.49 v 18.5 h 18.5 v 18.49 h 18.49 v -18.49 h 18.5 v -18.5 h 18.5 v -18.5 h -18.5 v -18.49 h 18.5 v 18.49 h 18.49 v -18.49 h 18.5 v 18.49 h -18.5 v 18.5 h 18.5 v 18.5 h -18.5 v -18.5 h -18.49 v 18.5 h -18.5 v 18.49 h -18.5 v 18.5 h 18.5 v 18.5 h 18.5 v 18.49 h 18.49 v -18.49 h 18.5 v 18.49 h -18.5 v 18.5"
             style="fill:none;stroke:#000000;stroke-width:7.49100018;stroke-linecap:round;stroke-linejoin:round;stroke-miterlimit:10;stroke-dasharray:none;stroke-opacity:1"
             id="path1561"
             inkscape:connector-curvature="0" /><path
             d="m 3979.54,4342.69 h 18.5 v 18.49 h 18.5 v 18.5 h 18.49 v -18.5 h 18.5 v 18.5 h -18.5 v 18.5 h 18.5 v 18.5 h 18.49 v 18.49 h 18.5 v -18.49 h 18.5 v -18.5 h 18.5 v -18.5 h -18.5 v -18.5 h 18.5 v 18.5 h 18.49 v -18.5 h 18.5 v -18.49 H 4183 v -18.5 h -18.49 V 4305.7 H 4183 v 18.49 h 18.5 v -18.49 h 18.5 v -18.5 h 18.49 v -18.5 H 4220 v -18.49"
             style="fill:none;stroke:#000000;stroke-width:7.49100018;stroke-linecap:round;stroke-linejoin:round;stroke-miterlimit:10;stroke-dasharray:none;stroke-opacity:1"
             id="path1563"
             inkscape:connector-curvature="0" /><path
             d="m 4220,4250.21 h -18.5 v -18.5 H 4183 v 18.5 h -18.49 v -18.5 H 4183 v -18.5 h -18.49 v -18.49 H 4183 v 18.49 h 18.5 v -18.49 h 18.5 v 18.49 h -18.5 v 18.5 h 18.5 v 18.5 h 18.49 v 18.49 h 18.5 v -18.49 h 18.49 v -18.5 h 18.5 v -18.5 h -18.5 v -18.49 h 18.5 v 18.49 h 18.5 v -18.49 h 18.49 v -18.5 h 18.5 v -18.49 h -18.5 v -18.5 h 18.5 v 18.5"
             style="fill:none;stroke:#000000;stroke-width:7.49100018;stroke-linecap:round;stroke-linejoin:round;stroke-miterlimit:10;stroke-dasharray:none;stroke-opacity:1"
             id="path1565"
             inkscape:connector-curvature="0" /><path
             d="m 4349.47,4157.73 h 18.49 v -18.5 h 18.5 v -18.5 h 18.5 v -18.49 h -18.5 v -18.5 h -18.5 v -18.5 h -18.49 v 18.5 h -18.5 v -18.5 h 18.5 v -18.49 h -18.5 v -18.5 h 18.5 v 18.5 h 18.49 v -18.5 h 18.5 v 18.5 h -18.5 v 18.49 h 18.5 v 18.5 h 18.5 v 18.5 h 18.49 v -18.5 h 18.5 v -18.5 h 18.5 v -18.49 h -18.5 v -18.5 h 18.5 v 18.5 h 18.5 v -18.5"
             style="fill:none;stroke:#000000;stroke-width:7.49100018;stroke-linecap:round;stroke-linejoin:round;stroke-miterlimit:10;stroke-dasharray:none;stroke-opacity:1"
             id="path1567"
             inkscape:connector-curvature="0" /><path
             d="m 4478.95,4028.25 h 18.49 v -18.5 h 18.5 v -18.49 h -18.5 v -18.5 h 18.5 v 18.5 h 18.49 v -18.5 h 18.5 v -18.49 h 18.5 v -18.5 h -18.5 v -18.5 h -18.5 v -18.49 h -18.49 v 18.49 h -18.5 v -18.49 h 18.5 v -18.5 h -18.5 v -18.49 h -18.49 v -18.5 h -18.5 v 18.5 h -18.5 v -18.5 h 18.5 v -18.5 h -18.5 v -18.49 h -18.5 v -18.5 h -18.49 v 18.5 h -18.5 v 18.49"
             style="fill:none;stroke:#000000;stroke-width:7.49100018;stroke-linecap:round;stroke-linejoin:round;stroke-miterlimit:10;stroke-dasharray:none;stroke-opacity:1"
             id="path1569"
             inkscape:connector-curvature="0" /><path
             d="m 4386.46,3824.79 h -18.5 v 18.5 h 18.5 v 18.5 h -18.5 v -18.5 h -18.49 v 18.5 h -18.5 v -18.5 h 18.5 v -18.5 h -18.5 v -18.49 h 18.5 v 18.49 h 18.49 v -18.49 h 18.5 v -18.5 h 18.5 v -18.5 h -18.5 v -18.49 h -18.5 v -18.5 h -18.49 v 18.5 h -18.5 v -18.5 h 18.5 v -18.49 h -18.5 v -18.5 h -18.49 v -18.5 h -18.5 v 18.5 h -18.5 v -18.5 h 18.5 v -18.5"
             style="fill:none;stroke:#000000;stroke-width:7.49100018;stroke-linecap:round;stroke-linejoin:round;stroke-miterlimit:10;stroke-dasharray:none;stroke-opacity:1"
             id="path1571"
             inkscape:connector-curvature="0" /><path
             d="m 4293.98,3658.32 h -18.5 v -18.49 h -18.49 v -18.5 h -18.5 v 18.5 H 4220 v 18.49 h -18.5 v 18.5 h 18.5 v 18.5 h -18.5 v -18.5 H 4183 v 18.5 h -18.49 v -18.5 H 4183 v -18.5 h -18.49 v -18.49 H 4183 v 18.49 h 18.5 v -18.49 h 18.5 v -18.5 h 18.49 v -18.49 H 4220 v -18.5 h -18.5 v -18.5 H 4183 v 18.5 h -18.49 v -18.5 H 4183 v -18.49 h -18.49 v -18.5"
             style="fill:none;stroke:#000000;stroke-width:7.49100018;stroke-linecap:round;stroke-linejoin:round;stroke-miterlimit:10;stroke-dasharray:none;stroke-opacity:1"
             id="path1573"
             inkscape:connector-curvature="0" /><path
             d="m 4164.51,3528.85 h -18.5 v -18.49 h -18.49 v 18.49 h -18.5 v -18.49 h 18.5 v -18.5 h -18.5 v -18.5 h -18.5 v -18.49 h -18.5 v 18.49 h -18.49 v 18.5 h -18.5 v 18.5 h 18.5 v 18.49 h -18.5 v -18.49 h -18.49 v 18.49 h -18.5 v 18.5 h -18.5 v 18.49 h 18.5 v 18.5 h -18.5 v -18.5 h -18.49 v 18.5 h -18.5 v 18.5 h -18.5 v 18.49 h 18.5 v 18.5 h 18.5 v 18.49"
             style="fill:none;stroke:#000000;stroke-width:7.49100018;stroke-linecap:round;stroke-linejoin:round;stroke-miterlimit:10;stroke-dasharray:none;stroke-opacity:1"
             id="path1575"
             inkscape:connector-curvature="0" /><path
             d="m 3961.05,3658.32 h 18.49 v -18.49 h 18.5 v 18.49 h -18.5 v 18.5 h 18.5 v 18.5 h -18.5 v -18.5 h -18.49 v 18.5 h -18.5 v -18.5 h 18.5 v -18.5 h -18.5 v -18.49 h -18.5 v -18.5 h -18.49 v 18.5 h -18.5 v 18.49 h -18.49 v 18.5 h 18.49 v 18.5 h -18.49 v -18.5 h -18.5 v 18.5 h -18.5 v -18.5 h 18.5 v -18.5 h -18.5 v -18.49 h 18.5 v 18.49 h 18.5 v -18.49"
             style="fill:none;stroke:#000000;stroke-width:7.49100018;stroke-linecap:round;stroke-linejoin:round;stroke-miterlimit:10;stroke-dasharray:none;stroke-opacity:1"
             id="path1577"
             inkscape:connector-curvature="0" /><path
             d="m 3868.57,3639.83 h 18.49 v -18.5 h 18.5 v -18.49 h -18.5 v -18.5 h -18.49 v -18.5 h -18.5 v 18.5 h -18.5 v -18.5 h 18.5 v -18.49 h -18.5 v -18.5 h 18.5 v 18.5 h 18.5 v -18.5 h 18.49 v 18.5 h -18.49 v 18.49 h 18.49 v 18.5 h 18.5 v 18.5 h 18.49 v -18.5 h 18.5 v -18.5 h 18.5 v -18.49 h -18.5 v -18.5 h 18.5 v 18.5 h 18.49 v -18.5 h 18.5 v -18.49"
             style="fill:none;stroke:#000000;stroke-width:7.49100018;stroke-linecap:round;stroke-linejoin:round;stroke-miterlimit:10;stroke-dasharray:none;stroke-opacity:1"
             id="path1579"
             inkscape:connector-curvature="0" /><path
             d="m 3998.04,3510.36 h 18.5 v -18.5 h -18.5 v -18.5 h 18.5 v 18.5 h 18.49 v -18.5 h 18.5 v -18.49 h 18.49 v -18.5 h -18.49 v -18.49 h -18.5 v -18.5 h -18.49 v 18.5 h -18.5 v -18.5 h 18.5 v -18.5 h -18.5 v -18.49 h -18.5 v -18.5 h -18.49 v 18.5 h -18.5 v -18.5 h 18.5 v -18.5 h -18.5 v -18.5 h -18.5 v -18.49 h -18.49 v 18.49 h -18.5 v 18.5 h -18.49 v 18.5"
             style="fill:none;stroke:#000000;stroke-width:7.49100018;stroke-linecap:round;stroke-linejoin:round;stroke-miterlimit:10;stroke-dasharray:none;stroke-opacity:1"
             id="path1581"
             inkscape:connector-curvature="0" /><path
             d="m 3868.57,3343.89 h 18.49 v 18.5 h -18.49 v -18.5 h -18.5 v 18.5 h -18.5 v -18.5 h 18.5 v -18.5 h -18.5 v -18.5 h 18.5 v 18.5 h 18.5 v -18.5 h 18.49 v -18.49 h 18.5 v -18.5 h -18.5 v -18.49 h -18.49 v -18.5 h -18.5 v 18.5 h -18.5 v -18.5 h 18.5 v -18.5 h -18.5 v -18.49 h -18.49 v -18.5 h -18.5 v 18.5 h -18.49 v -18.5 h 18.49 v -18.49 h -18.49 v -18.5"
             style="fill:none;stroke:#000000;stroke-width:7.49100018;stroke-linecap:round;stroke-linejoin:round;stroke-miterlimit:10;stroke-dasharray:none;stroke-opacity:1"
             id="path1583"
             inkscape:connector-curvature="0" /><path
             d="m 3776.09,3140.43 h -18.5 v -18.5 h -18.5 v 18.5 h -18.5 v 18.5 h -18.49 v 18.49 h 18.49 v 18.5 h -18.49 v -18.5 h -18.5 v 18.5 h -18.49 v -18.5 h 18.49 v -18.49 h -18.49 v -18.5 h 18.49 v 18.5 h 18.5 v -18.5 h 18.49 v -18.5 h 18.5 v -18.49 h -18.5 v -18.5 h -18.49 v -18.49 h -18.5 v 18.49 h -18.49 v -18.49 h 18.49 v -18.5 h -18.49 v -18.5 h -18.5 v -18.49"
             style="fill:none;stroke:#000000;stroke-width:7.49100018;stroke-linecap:round;stroke-linejoin:round;stroke-miterlimit:10;stroke-dasharray:none;stroke-opacity:1"
             id="path1585"
             inkscape:connector-curvature="0" /><path
             d="m 3646.61,3010.96 h -18.5 v 18.49 h -18.49 v -18.49 h 18.49 v -18.5 h -18.49 v -18.5 h -18.5 v -18.5 h -18.49 v 18.5 h -18.5 v 18.5 h -18.5 v 18.5 h 18.5 v 18.49 h -18.5 v -18.49 h -18.49 v 18.49 h -18.5 v 18.5 h -18.5 v 18.5 h 18.5 v 18.49 h -18.5 v -18.49 h -18.49 v 18.49 h -18.5 v 18.5 h -18.49 v 18.49 h 18.49 v 18.5 h 18.5 v 18.5 h 18.49 v -18.5"
             style="fill:none;stroke:#000000;stroke-width:7.49100018;stroke-linecap:round;stroke-linejoin:round;stroke-miterlimit:10;stroke-dasharray:none;stroke-opacity:1"
             id="path1587"
             inkscape:connector-curvature="0" /><path
             d="m 3480.14,3140.43 h 18.5 v 18.5 h -18.5 v 18.49 h 18.5 v 18.5 h -18.5 v -18.5 h -18.49 v 18.5 h -18.5 v -18.5 h 18.5 v -18.49 h -18.5 v -18.5 h -18.49 v -18.5 h -18.5 v 18.5 h -18.5 v 18.5 h -18.5 v 18.49 h 18.5 v 18.5 h -18.5 v -18.5 h -18.49 v 18.5 h -18.5 v -18.5 h 18.5 v -18.49 h -18.5 v -18.5 h 18.5 v 18.5 h 18.49 v -18.5 h 18.5 v -18.5"
             style="fill:none;stroke:#000000;stroke-width:7.49100018;stroke-linecap:round;stroke-linejoin:round;stroke-miterlimit:10;stroke-dasharray:none;stroke-opacity:1"
             id="path1589"
             inkscape:connector-curvature="0" /><path
             d="m 3387.66,3121.93 h 18.5 v -18.49 h -18.5 v -18.5 h -18.5 v -18.49 h -18.49 v 18.49 h -18.5 v -18.49 h 18.5 v -18.5 h -18.5 v -18.5 h 18.5 v 18.5 h 18.49 v -18.5 h 18.5 v 18.5 h -18.5 v 18.5 h 18.5 v 18.49 h 18.5 v 18.5 h 18.5 v -18.5 h 18.49 v -18.49 h 18.5 v -18.5 h -18.5 v -18.5 h 18.5 v 18.5 h 18.49 v -18.5 h 18.5 v -18.49 h 18.5 v -18.5"
             style="fill:none;stroke:#000000;stroke-width:7.49100018;stroke-linecap:round;stroke-linejoin:round;stroke-miterlimit:10;stroke-dasharray:none;stroke-opacity:1"
             id="path1591"
             inkscape:connector-curvature="0" /><path
             d="m 3517.14,2992.46 h -18.5 v -18.5 h 18.5 v 18.5 h 18.49 v -18.5 h 18.5 v -18.5 h 18.5 v -18.49 h -18.5 v -18.5 h -18.5 v -18.49 h -18.49 v 18.49 h -18.5 v -18.49 h 18.5 v -18.5 h -18.5 v -18.5 h -18.5 v -18.49 h -18.49 v 18.49 h -18.5 v -18.49 h 18.5 v -18.5 h -18.5 v -18.49 h -18.49 V 2789 h -18.5 v 18.5 h -18.5 v 18.49 h -18.5 v 18.5 h 18.5 v 18.49"
             style="fill:none;stroke:#000000;stroke-width:7.49100018;stroke-linecap:round;stroke-linejoin:round;stroke-miterlimit:10;stroke-dasharray:none;stroke-opacity:1"
             id="path1593"
             inkscape:connector-curvature="0" /><path
             d="m 3387.66,2862.98 h -18.5 v -18.49 h -18.49 v 18.49 h -18.5 v -18.49 h 18.5 v -18.5 h -18.5 v -18.49 h 18.5 v 18.49 h 18.49 v -18.49 h 18.5 V 2789 h 18.5 v -18.5 h -18.5 v -18.49 h -18.5 v -18.5 h -18.49 v 18.5 h -18.5 v -18.5 h 18.5 v -18.49 h -18.5 v -18.5 h -18.49 v -18.5 h -18.5 v 18.5 h -18.5 v -18.5 h 18.5 v -18.49 h -18.5 v -18.5 h -18.49 v -18.5"
             style="fill:none;stroke:#000000;stroke-width:7.49100018;stroke-linecap:round;stroke-linejoin:round;stroke-miterlimit:10;stroke-dasharray:none;stroke-opacity:1"
             id="path1595"
             inkscape:connector-curvature="0" /><path
             d="m 3258.19,2622.53 h -18.5 v 18.5 h -18.49 v 18.5 h -18.5 v 18.49 h 18.5 v 18.5 h -18.5 v -18.5 h -18.5 v 18.5 h -18.49 v -18.5 h 18.49 v -18.49 h -18.49 v -18.5 h 18.49 v 18.5 h 18.5 v -18.5 h 18.5 v -18.5 h 18.49 v -18.49 h -18.49 v -18.5 h -18.5 v -18.5 h -18.5 v 18.5 h -18.49 v -18.5 h 18.49 v -18.49 h -18.49 v -18.5 h -18.5 v -18.5 h -18.5 v 18.5"
             style="fill:none;stroke:#000000;stroke-width:7.49100018;stroke-linecap:round;stroke-linejoin:round;stroke-miterlimit:10;stroke-dasharray:none;stroke-opacity:1"
             id="path1597"
             inkscape:connector-curvature="0" /><path
             d="m 3128.71,2530.05 h -18.49 v -18.5 h 18.49 v -18.49 h -18.49 v -18.5 h -18.5 v -18.49 h -18.49 v 18.49 h -18.5 v 18.5 h -18.5 v 18.49 h 18.5 v 18.5 h -18.5 v -18.5 h -18.5 v 18.5 h -18.49 v 18.5 h -18.5 v 18.49 h 18.5 v 18.5 h -18.5 v -18.5 h -18.49 v 18.5 h -18.5 v 18.5 h -18.5 v 18.49 h 18.5 v 18.5 h 18.5 v 18.5 h 18.49 v -18.5 h 18.5 v 18.5"
             style="fill:none;stroke:#000000;stroke-width:7.49100018;stroke-linecap:round;stroke-linejoin:round;stroke-miterlimit:10;stroke-dasharray:none;stroke-opacity:1"
             id="path1599"
             inkscape:connector-curvature="0" /><path
             d="m 2999.24,2659.53 h -18.5 v 18.49 h 18.5 v 18.5 h -18.5 v -18.5 h -18.49 v 18.5 h -18.5 v -18.5 h 18.5 v -18.49 h -18.5 v -18.5 h -18.5 v -18.5 h -18.49 v 18.5 h -18.5 v 18.5 h -18.49 v 18.49 h 18.49 v 18.5 h -18.49 v -18.5 h -18.5 v 18.5 h -18.5 v 18.5 h -18.49 v 18.49 h 18.49 v 18.5 h -18.49 v -18.5 h -18.5 v 18.5 h -18.49 v 18.49 h -18.5 v 18.5"
             style="fill:none;stroke:#000000;stroke-width:7.49100018;stroke-linecap:round;stroke-linejoin:round;stroke-miterlimit:10;stroke-dasharray:none;stroke-opacity:1"
             id="path1601"
             inkscape:connector-curvature="0" /><path
             d="m 2758.79,2789 h 18.5 v 18.5 h 18.49 v 18.49 h 18.5 v -18.49 h 18.49 v 18.49 h -18.49 v 18.5 h 18.49 v 18.49 h -18.49 v -18.49 h -18.5 v 18.49 h -18.49 v -18.49 h 18.49 v -18.5 h -18.49 v -18.49 h -18.5 V 2789 h -18.5 v 18.5 h -18.49 v 18.49 h -18.5 v 18.5 h 18.5 v 18.49 h -18.5 v -18.49 h -18.5 v 18.49 h -18.5 v 18.5 h -18.49 v 18.5 h 18.49 v 18.49"
             style="fill:none;stroke:#000000;stroke-width:7.49100018;stroke-linecap:round;stroke-linejoin:round;stroke-miterlimit:10;stroke-dasharray:none;stroke-opacity:1"
             id="path1603"
             inkscape:connector-curvature="0" /><path
             d="m 2666.3,2918.47 h -18.49 v -18.49 h -18.5 v 18.49 h -18.49 v 18.5 h -18.5 v 18.49 h 18.5 v 18.5 h 18.49 v 18.5 h 18.5 v -18.5 h 18.49 v 18.5 h -18.49 v 18.5 h 18.49 v 18.49 h 18.5 v 18.5 h 18.5 v -18.5 h 18.5 v 18.5 h -18.5 v 18.5 h 18.5 v 18.49 h 18.49 v 18.5 h 18.5 v -18.5 h 18.5 v -18.49 h 18.49 v -18.5 h -18.49 v -18.5 h 18.49 v 18.5"
             style="fill:none;stroke:#000000;stroke-width:7.49100018;stroke-linecap:round;stroke-linejoin:round;stroke-miterlimit:10;stroke-dasharray:none;stroke-opacity:1"
             id="path1605"
             inkscape:connector-curvature="0" /><path
             d="m 2795.78,3047.95 h 18.5 v -18.5 h 18.49 v 18.5 h -18.49 v 18.5 h 18.49 v 18.49 h -18.49 v -18.49 h -18.5 v 18.49 h -18.49 v 18.5 h -18.5 v 18.49 h 18.5 v 18.5 h 18.49 v 18.5 h 18.5 v -18.5 h 18.49 v 18.5 h -18.49 v 18.49 h 18.49 v 18.5 h -18.49 v -18.5 h -18.5 v 18.5 h -18.49 v -18.5 h 18.49 v -18.49 h -18.49 v -18.5 h -18.5 v -18.5 h -18.5 v 18.5"
             style="fill:none;stroke:#000000;stroke-width:7.49100018;stroke-linecap:round;stroke-linejoin:round;stroke-miterlimit:10;stroke-dasharray:none;stroke-opacity:1"
             id="path1607"
             inkscape:connector-curvature="0" /><path
             d="m 2740.29,3140.43 h -18.49 v 18.5 h -18.5 v 18.49 h 18.5 v 18.5 h -18.5 v -18.5 h -18.5 v 18.5 h -18.5 v -18.5 h 18.5 v -18.49 h -18.5 v -18.5 h 18.5 v 18.5 h 18.5 v -18.5 h 18.5 v -18.5 h 18.49 v -18.49 h -18.49 v -18.5 h -18.5 v -18.49 h -18.5 v 18.49 h -18.5 v -18.49 h 18.5 v -18.5 h -18.5 v -18.5 h -18.49 v -18.49 h -18.5 v 18.49 h -18.49 v -18.49"
             style="fill:none;stroke:#000000;stroke-width:7.49100018;stroke-linecap:round;stroke-linejoin:round;stroke-miterlimit:10;stroke-dasharray:none;stroke-opacity:1"
             id="path1609"
             inkscape:connector-curvature="0" /><path
             d="m 2610.82,3010.96 h 18.49 v -18.5 h -18.49 v -18.5 h -18.5 v -18.5 h -18.5 v 18.5 h -18.49 v 18.5 h -18.5 v 18.5 h 18.5 v 18.49 h -18.5 v -18.49 h -18.49 v 18.49 h -18.5 v 18.5 h -18.5 v 18.5 h 18.5 v 18.49 h -18.5 v -18.49 h -18.49 v 18.49 h -18.5 v 18.5 h -18.49 v 18.49 h 18.49 v 18.5 h 18.5 v 18.5 h 18.49 v -18.5 h 18.5 v 18.5 h -18.5 v 18.49"
             style="fill:none;stroke:#000000;stroke-width:7.49100018;stroke-linecap:round;stroke-linejoin:round;stroke-miterlimit:10;stroke-dasharray:none;stroke-opacity:1"
             id="path1611"
             inkscape:connector-curvature="0" /><path
             d="m 2481.34,3177.42 h 18.5 v 18.5 h -18.5 v -18.5 h -18.49 v 18.5 h -18.5 v -18.5 h 18.5 v -18.49 h -18.5 v -18.5 h -18.49 v -18.5 h -18.5 v 18.5 h -18.5 v 18.5 h -18.49 v 18.49 h 18.49 v 18.5 h -18.49 v -18.5 h -18.5 v 18.5 h -18.5 v 18.49 h -18.49 v 18.5 h 18.49 v 18.5 h -18.49 v -18.5 h -18.5 v 18.5 h -18.5 v 18.49 h -18.49 v 18.5 h 18.49 v 18.49"
             style="fill:none;stroke:#000000;stroke-width:7.49100018;stroke-linecap:round;stroke-linejoin:round;stroke-miterlimit:10;stroke-dasharray:none;stroke-opacity:1"
             id="path1613"
             inkscape:connector-curvature="0" /><path
             d="m 2277.88,3306.89 h 18.5 v 18.5 h 18.5 v -18.5 h 18.49 v 18.5 h -18.49 v 18.5 h 18.49 v 18.5 h -18.49 v -18.5 h -18.5 v 18.5 h -18.5 v -18.5 h 18.5 v -18.5 h -18.5 v -18.5 h -18.49 v -18.49 h -18.5 v 18.49 h -18.5 v 18.5 h -18.49 v 18.5 h 18.49 v 18.5 h -18.49 v -18.5 h -18.5 v 18.5 h -18.49 v 18.49 h -18.5 v 18.5 h 18.5 v 18.5 h -18.5 v -18.5"
             style="fill:none;stroke:#000000;stroke-width:7.49100018;stroke-linecap:round;stroke-linejoin:round;stroke-miterlimit:10;stroke-dasharray:none;stroke-opacity:1"
             id="path1615"
             inkscape:connector-curvature="0" /><path
             d="m 2148.41,3399.38 h -18.5 v 18.5 h -18.49 v 18.49 h -18.5 v 18.5 h 18.5 v 18.49 h 18.49 v 18.5 h 18.5 v -18.5 h 18.5 v 18.5 h -18.5 v 18.5 h 18.5 v 18.49 h 18.49 v 18.5 h 18.5 v -18.5 h 18.49 v 18.5 h -18.49 v 18.49 h 18.49 v 18.5 h 18.5 v 18.5 h 18.5 v -18.5 h 18.49 v -18.5 h 18.5 v -18.49 h -18.5 v -18.5 h 18.5 v 18.5 h 18.5 v -18.5"
             style="fill:none;stroke:#000000;stroke-width:7.49100018;stroke-linecap:round;stroke-linejoin:round;stroke-miterlimit:10;stroke-dasharray:none;stroke-opacity:1"
             id="path1617"
             inkscape:connector-curvature="0" /><path
             d="m 2314.88,3528.85 h 18.49 v 18.5 h -18.49 v 18.49 h 18.49 v 18.5 h -18.49 v -18.5 h -18.5 v 18.5 h -18.5 v 18.5 h -18.49 v 18.49 h 18.49 v 18.5 h 18.5 v 18.49 h 18.5 v -18.49 h 18.49 v 18.49 h -18.49 v 18.5 h 18.49 v 18.5 h -18.49 v -18.5 h -18.5 v 18.5 h -18.5 v -18.5 h 18.5 v -18.5 h -18.5 v -18.49 h -18.49 v -18.5 h -18.5 v 18.5 h -18.5 v 18.49"
             style="fill:none;stroke:#000000;stroke-width:7.49100018;stroke-linecap:round;stroke-linejoin:round;stroke-miterlimit:10;stroke-dasharray:none;stroke-opacity:1"
             id="path1619"
             inkscape:connector-curvature="0" /><path
             d="m 2222.39,3658.32 h -18.49 v 18.5 h 18.49 v 18.5 h -18.49 v -18.5 h -18.5 v 18.5 h -18.49 v -18.5 h 18.49 v -18.5 h -18.49 v -18.49 h 18.49 v 18.49 h 18.5 v -18.49 h 18.49 v -18.5 h 18.5 v -18.49 h -18.5 v -18.5 h -18.49 v -18.5 h -18.5 v 18.5 h -18.49 v -18.5 h 18.49 v -18.49 h -18.49 v -18.5 h -18.5 v -18.49 h -18.5 v 18.49 h -18.49 v -18.49 h 18.49 v -18.5"
             style="fill:none;stroke:#000000;stroke-width:7.49100018;stroke-linecap:round;stroke-linejoin:round;stroke-miterlimit:10;stroke-dasharray:none;stroke-opacity:1"
             id="path1621"
             inkscape:connector-curvature="0" /><path
             d="m 2129.91,3491.86 h -18.49 v -18.5 h -18.5 v -18.49 h -18.49 v 18.49 h -18.5 v 18.5 h -18.5 v 18.5 h 18.5 v 18.49 h -18.5 v -18.49 h -18.49 v 18.49 h -18.5 v 18.5 h -18.5 v 18.49 h 18.5 v 18.5 h -18.5 v -18.5 h -18.49 v 18.5 h -18.5 v 18.5 h -18.5 v 18.49 h 18.5 v 18.5 h 18.5 v 18.49 h 18.49 v -18.49 h 18.5 v 18.49 h -18.5 v 18.5 h 18.5 v 18.5"
             style="fill:none;stroke:#000000;stroke-width:7.49100018;stroke-linecap:round;stroke-linejoin:round;stroke-miterlimit:10;stroke-dasharray:none;stroke-opacity:1"
             id="path1623"
             inkscape:connector-curvature="0" /><path
             d="m 2000.44,3695.32 h -18.5 v -18.5 h -18.49 v 18.5 h -18.5 v -18.5 h 18.5 v -18.5 h -18.5 v -18.49 h -18.5 v -18.5 h -18.49 v 18.5 h -18.5 v 18.49 h -18.5 v 18.5 h 18.5 v 18.5 h -18.5 v -18.5 h -18.49 v 18.5 h -18.5 v 18.5 h -18.49 v 18.49 h 18.49 v 18.5 h -18.49 v -18.5 h -18.5 v 18.5 h -18.5 v 18.49 h -18.49 v 18.5 h 18.49 v 18.5 h 18.5 v 18.49"
             style="fill:none;stroke:#000000;stroke-width:7.49100018;stroke-linecap:round;stroke-linejoin:round;stroke-miterlimit:10;stroke-dasharray:none;stroke-opacity:1"
             id="path1625"
             inkscape:connector-curvature="0" /><path
             d="m 1796.98,3824.79 h 18.5 v -18.49 h 18.49 v 18.49 h -18.49 v 18.5 h 18.49 v 18.5 h -18.49 v -18.5 h -18.5 v 18.5 h -18.5 v -18.5 h 18.5 v -18.5 h -18.5 v -18.49 h -18.49 v -18.5 h -18.5 v 18.5 H 1723 v 18.49 h -18.5 v 18.5 h 18.5 v 18.5 h -18.5 v -18.5 H 1686 v 18.5 h -18.49 v 18.49 h -18.5 v 18.5 h 18.5 v 18.49 h -18.5 v -18.49 h -18.5 v 18.49"
             style="fill:none;stroke:#000000;stroke-width:7.49100018;stroke-linecap:round;stroke-linejoin:round;stroke-miterlimit:10;stroke-dasharray:none;stroke-opacity:1"
             id="path1627"
             inkscape:connector-curvature="0" /><path
             d="m 1630.51,3917.27 h -18.49 v 18.5 h -18.5 v 18.5 h 18.5 v 18.49 h 18.49 v 18.5 h 18.5 v -18.5 h 18.5 v 18.5 h -18.5 v 18.49 h 18.5 v 18.5 H 1686 v 18.5 h 18.5 v -18.5 h 18.5 v 18.5 h -18.5 v 18.49 h 18.5 v 18.5 h 18.49 v 18.5 h 18.5 v -18.5 h 18.49 v -18.5 h 18.5 v -18.49 h -18.5 v -18.5 h 18.5 v 18.5 h 18.5 v -18.5 h 18.49 v 18.5"
             style="fill:none;stroke:#000000;stroke-width:7.49100018;stroke-linecap:round;stroke-linejoin:round;stroke-miterlimit:10;stroke-dasharray:none;stroke-opacity:1"
             id="path1629"
             inkscape:connector-curvature="0" /><path
             d="m 1833.97,4046.75 h -18.49 v 18.49 h 18.49 v 18.5 h -18.49 v -18.5 h -18.5 v 18.5 h -18.5 v 18.5 h -18.49 v 18.49 h 18.49 v 18.5 h 18.5 v 18.5 h 18.5 v -18.5 h 18.49 v 18.5 h -18.49 v 18.49 h 18.49 v 18.5 h 18.5 v 18.49 h 18.49 v -18.49 h 18.5 v 18.49 h -18.5 v 18.5 h 18.5 v 18.5 h 18.5 v 18.49 h 18.49 v -18.49 h 18.5 v -18.5 h 18.5 v -18.5"
             style="fill:none;stroke:#000000;stroke-width:7.49100018;stroke-linecap:round;stroke-linejoin:round;stroke-miterlimit:10;stroke-dasharray:none;stroke-opacity:1"
             id="path1631"
             inkscape:connector-curvature="0" /><path
             d="m 1963.45,4213.21 h -18.5 v -18.49 h 18.5 v 18.49 h 18.49 v -18.49 h 18.5 v 18.49 h -18.5 v 18.5 h 18.5 v 18.5 h -18.5 v -18.5 h -18.49 v 18.5 h -18.5 v 18.49 h -18.5 v 18.5 h 18.5 v 18.5 h 18.5 v 18.49 h 18.49 v -18.49 h 18.5 v 18.49 h -18.5 v 18.5 h 18.5 v 18.49 h 18.5 v 18.5 h 18.49 v -18.5 h 18.5 v 18.5 h -18.5 v 18.5 h 18.5 v 18.5"
             style="fill:none;stroke:#000000;stroke-width:7.49100018;stroke-linecap:round;stroke-linejoin:round;stroke-miterlimit:10;stroke-dasharray:none;stroke-opacity:1"
             id="path1633"
             inkscape:connector-curvature="0" /><path
             d="m 2055.93,4416.68 h 18.5 v 18.49 h 18.49 v -18.49 h 18.5 v -18.5 h 18.49 v -18.5 h -18.49 v -18.5 h 18.49 v 18.5 h 18.5 v -18.5 h 18.5 v -18.49 h 18.49 v -18.5 h -18.49 v -18.49 h 18.49 v 18.49 h 18.5 v -18.49 h 18.49 v -18.5 h 18.5 v -18.5 h -18.5 v -18.49 h -18.49 v -18.5 h -18.5 v 18.5 h -18.49 v -18.5 h 18.49 v -18.5 h -18.49 v -18.49 h 18.49 v 18.49"
             style="fill:none;stroke:#000000;stroke-width:7.49100018;stroke-linecap:round;stroke-linejoin:round;stroke-miterlimit:10;stroke-dasharray:none;stroke-opacity:1"
             id="path1635"
             inkscape:connector-curvature="0" /><path
             d="m 2185.4,4213.21 h 18.5 v -18.49 h 18.49 v 18.49 h -18.49 v 18.5 h 18.49 v 18.5 h 18.5 v 18.49 h 18.5 v -18.49 h 18.49 v -18.5 h 18.5 v -18.5 h -18.5 v -18.49 h 18.5 v 18.49 h 18.5 v -18.49 h 18.49 v 18.49 h -18.49 v 18.5 h 18.49 v 18.5 h -18.49 v -18.5 h -18.5 v 18.5 h -18.5 v 18.49 h -18.49 v 18.5 h 18.49 v 18.5 h 18.5 v 18.49 h 18.5 v -18.49"
             style="fill:none;stroke:#000000;stroke-width:7.49100018;stroke-linecap:round;stroke-linejoin:round;stroke-miterlimit:10;stroke-dasharray:none;stroke-opacity:1"
             id="path1637"
             inkscape:connector-curvature="0" /><path
             d="m 2314.88,4305.7 h 18.49 v 18.49 h -18.49 v 18.5 h 18.49 v 18.49 h -18.49 v -18.49 h -18.5 v 18.49 h -18.5 v -18.49 h 18.5 v -18.5 h -18.5 v -18.49 h -18.49 v -18.5 h -18.5 v 18.5 h -18.5 v 18.49 h -18.49 v 18.5 h 18.49 v 18.49 h -18.49 v -18.49 h -18.5 v 18.49 h -18.49 v 18.5 h -18.5 v 18.5 h 18.5 v 18.5 h -18.5 v -18.5 h -18.5 v 18.5 h -18.49 v 18.49"
             style="fill:none;stroke:#000000;stroke-width:7.49100018;stroke-linecap:round;stroke-linejoin:round;stroke-miterlimit:10;stroke-dasharray:none;stroke-opacity:1"
             id="path1639"
             inkscape:connector-curvature="0" /><path
             d="m 2111.42,4435.17 h -18.5 v 18.5 h 18.5 v 18.49 h 18.49 v 18.5 h 18.5 v -18.5 h 18.5 v 18.5 h -18.5 v 18.5 h 18.5 v 18.49 h 18.49 v 18.5 h 18.5 v -18.5 h 18.49 v 18.5 h -18.49 v 18.49 h 18.49 v 18.5 h 18.5 v 18.5 h 18.5 v -18.5 h 18.49 v -18.5 h 18.5 v -18.49 h -18.5 v -18.5 h 18.5 v 18.5 h 18.5 v -18.5 h 18.49 v 18.5 h -18.49 v 18.49"
             style="fill:none;stroke:#000000;stroke-width:7.49100018;stroke-linecap:round;stroke-linejoin:round;stroke-miterlimit:10;stroke-dasharray:none;stroke-opacity:1"
             id="path1641"
             inkscape:connector-curvature="0" /><path
             d="m 2314.88,4564.64 h 18.49 v 18.5 h -18.49 v -18.5 h -18.5 v 18.5 h -18.5 v 18.5 h -18.49 v 18.49 h 18.49 v 18.5 h 18.5 v 18.5 h 18.5 v -18.5 h 18.49 v 18.5 h -18.49 v 18.49 h 18.49 v 18.5"
             style="fill:none;stroke:#000000;stroke-width:7.49100018;stroke-linecap:round;stroke-linejoin:round;stroke-miterlimit:10;stroke-dasharray:none;stroke-opacity:1"
             id="path1643"
             inkscape:connector-curvature="0" /></g></g></g></g></svg>