<?xml version="1.0" encoding="UTF-8" standalone="no"?>
<!-- Created with Inkscape (http://www.inkscape.org/) -->

<svg
   xmlns:dc="http://purl.org/dc/elements/1.1/"
   xmlns:cc="http://creativecommons.org/ns#"
   xmlns:rdf="http://www.w3.org/1999/02/22-rdf-syntax-ns#"
   xmlns:svg="http://www.w3.org/2000/svg"
   xmlns="http://www.w3.org/2000/svg"
   xmlns:sodipodi="http://sodipodi.sourceforge.net/DTD/sodipodi-0.dtd"
   xmlns:inkscape="http://www.inkscape.org/namespaces/inkscape"
   version="1.1"
   id="svg6973"
   xml:space="preserve"
   width="221.77174"
   height="252.66006"
   viewBox="0 0 221.77174 252.66005"
   sodipodi:docname="koch-flake-2.svg"
   inkscape:version="0.92.4 (5da689c313, 2019-01-14)"
   inkscape:export-filename="D:\Benutzer\Admin\Desktop\GITordner\spass-mit-fraktalen\Exporttests\ps-Dateien\koch-curve-flake\koch-flake-2.png"
   inkscape:export-xdpi="96"
   inkscape:export-ydpi="96"><metadata
     id="metadata6979"><rdf:RDF><cc:Work
         rdf:about=""><dc:format>image/svg+xml</dc:format><dc:type
           rdf:resource="http://purl.org/dc/dcmitype/StillImage" /><dc:title></dc:title></cc:Work></rdf:RDF></metadata><defs
     id="defs6977"><clipPath
       clipPathUnits="userSpaceOnUse"
       id="clipPath6991"><path
         d="m 513.059,1810.08 h 5101.37 V 6109.92 H 513.059 Z"
         id="path6989"
         inkscape:connector-curvature="0" /></clipPath></defs><sodipodi:namedview
     pagecolor="#ffffff"
     bordercolor="#666666"
     borderopacity="1"
     objecttolerance="10"
     gridtolerance="10"
     guidetolerance="10"
     inkscape:pageopacity="0"
     inkscape:pageshadow="2"
     inkscape:window-width="1920"
     inkscape:window-height="1017"
     id="namedview6975"
     showgrid="false"
     fit-margin-top="10"
     fit-margin-right="10"
     fit-margin-bottom="10"
     fit-margin-left="10"
     inkscape:zoom="3.4314881"
     inkscape:cx="110.88587"
     inkscape:cy="126.33003"
     inkscape:window-x="-8"
     inkscape:window-y="-8"
     inkscape:window-maximized="1"
     inkscape:current-layer="g6981" /><g
     id="g6981"
     inkscape:groupmode="layer"
     inkscape:label="ink_ext_XXXXXX"
     transform="matrix(1.3333333,0,0,-1.3333333,-300.10297,694.54668)"><g
       id="g6983"
       transform="scale(0.1)"><g
         id="g6985"><g
           id="g6987"
           clip-path="url(#clipPath6991)"><path
             d="m 2333.37,4694.12 h 499.4 l 249.7,432.49 249.7,-432.49 h 499.4 l -249.7,-432.49 249.7,-432.5 h -499.4 l -249.7,-432.49 -249.7,432.49 h -499.4 l 249.7,432.5 -249.7,432.49"
             style="fill:none;stroke:#000000;stroke-width:14.98200035;stroke-linecap:round;stroke-linejoin:round;stroke-miterlimit:10;stroke-dasharray:none;stroke-opacity:1"
             id="path6993"
             inkscape:connector-curvature="0" /></g></g></g></g></svg>