<?xml version="1.0" encoding="UTF-8" standalone="no"?>
<!-- Created with Inkscape (http://www.inkscape.org/) -->

<svg
   xmlns:dc="http://purl.org/dc/elements/1.1/"
   xmlns:cc="http://creativecommons.org/ns#"
   xmlns:rdf="http://www.w3.org/1999/02/22-rdf-syntax-ns#"
   xmlns:svg="http://www.w3.org/2000/svg"
   xmlns="http://www.w3.org/2000/svg"
   xmlns:sodipodi="http://sodipodi.sourceforge.net/DTD/sodipodi-0.dtd"
   xmlns:inkscape="http://www.inkscape.org/namespaces/inkscape"
   version="1.1"
   id="svg4437"
   xml:space="preserve"
   width="220.77303"
   height="220.77303"
   viewBox="0 0 220.77302 220.77302"
   sodipodi:docname="menger-1-farbig-ausgefuellt.svg"
   inkscape:version="0.92.4 (5da689c313, 2019-01-14)"><metadata
     id="metadata4443"><rdf:RDF><cc:Work
         rdf:about=""><dc:format>image/svg+xml</dc:format><dc:type
           rdf:resource="http://purl.org/dc/dcmitype/StillImage" /><dc:title></dc:title></cc:Work></rdf:RDF></metadata><defs
     id="defs4441"><clipPath
       clipPathUnits="userSpaceOnUse"
       id="clipPath4455"><path
         d="m 513.059,1810.08 h 5101.37 V 6109.92 H 513.059 Z"
         id="path4453"
         inkscape:connector-curvature="0" /></clipPath></defs><sodipodi:namedview
     pagecolor="#ffffff"
     bordercolor="#666666"
     borderopacity="1"
     objecttolerance="10"
     gridtolerance="10"
     guidetolerance="10"
     inkscape:pageopacity="0"
     inkscape:pageshadow="2"
     inkscape:window-width="640"
     inkscape:window-height="480"
     id="namedview4439"
     showgrid="false"
     fit-margin-top="10"
     fit-margin-left="10"
     fit-margin-bottom="10"
     fit-margin-right="10"
     inkscape:zoom="0.63153202"
     inkscape:cx="96.057177"
     inkscape:cy="115.75318"
     inkscape:current-layer="g4445" /><g
     id="g4445"
     inkscape:groupmode="layer"
     inkscape:label="ink_ext_XXXXXX"
     transform="matrix(1.3333333,0,0,-1.3333333,-300.60948,666.35316)"><g
       id="g4447"
       transform="scale(0.1)"><g
         id="g4449"><g
           id="g4451"
           clip-path="url(#clipPath4455)"><path
             d="m 2333.37,4918.85 h 499.4 v -499.4 h -499.4 v 499.4 0"
             style="fill:#d3d3d3;fill-opacity:1;fill-rule:evenodd;stroke:none"
             id="path4457"
             inkscape:connector-curvature="0" /><path
             d="m 2333.37,4918.85 h 499.4 v -499.4 h -499.4 v 499.4"
             style="fill:none;stroke:#000000;stroke-width:7.49100018;stroke-linecap:round;stroke-linejoin:round;stroke-miterlimit:10;stroke-dasharray:none;stroke-opacity:1"
             id="path4459"
             inkscape:connector-curvature="0" /><path
             d="m 2832.77,4918.85 h 499.4 v -499.4 h -499.4 v 499.4 0"
             style="fill:#d3d3d3;fill-opacity:1;fill-rule:evenodd;stroke:none"
             id="path4461"
             inkscape:connector-curvature="0" /><path
             d="m 2832.77,4918.85 h 499.4 v -499.4 h -499.4 v 499.4"
             style="fill:none;stroke:#000000;stroke-width:7.49100018;stroke-linecap:round;stroke-linejoin:round;stroke-miterlimit:10;stroke-dasharray:none;stroke-opacity:1"
             id="path4463"
             inkscape:connector-curvature="0" /><path
             d="m 3332.17,4918.85 h 499.4 v -499.4 h -499.4 v 499.4 0"
             style="fill:#d3d3d3;fill-opacity:1;fill-rule:evenodd;stroke:none"
             id="path4465"
             inkscape:connector-curvature="0" /><path
             d="m 3332.17,4918.85 h 499.4 v -499.4 h -499.4 v 499.4"
             style="fill:none;stroke:#000000;stroke-width:7.49100018;stroke-linecap:round;stroke-linejoin:round;stroke-miterlimit:10;stroke-dasharray:none;stroke-opacity:1"
             id="path4467"
             inkscape:connector-curvature="0" /><path
             d="m 3831.57,4419.45 v -499.4 h -499.4 v 499.4 h 499.4 v 0"
             style="fill:#d3d3d3;fill-opacity:1;fill-rule:evenodd;stroke:none"
             id="path4469"
             inkscape:connector-curvature="0" /><path
             d="m 3831.57,4419.45 v -499.4 h -499.4 v 499.4 h 499.4"
             style="fill:none;stroke:#000000;stroke-width:7.49100018;stroke-linecap:round;stroke-linejoin:round;stroke-miterlimit:10;stroke-dasharray:none;stroke-opacity:1"
             id="path4471"
             inkscape:connector-curvature="0" /><path
             d="m 3831.57,3920.05 v -499.4 h -499.4 v 499.4 h 499.4 v 0"
             style="fill:#d3d3d3;fill-opacity:1;fill-rule:evenodd;stroke:none"
             id="path4473"
             inkscape:connector-curvature="0" /><path
             d="m 3831.57,3920.05 v -499.4 h -499.4 v 499.4 h 499.4"
             style="fill:none;stroke:#000000;stroke-width:7.49100018;stroke-linecap:round;stroke-linejoin:round;stroke-miterlimit:10;stroke-dasharray:none;stroke-opacity:1"
             id="path4475"
             inkscape:connector-curvature="0" /><path
             d="m 3332.17,3420.65 h -499.4 v 499.4 h 499.4 v -499.4 0"
             style="fill:#d3d3d3;fill-opacity:1;fill-rule:evenodd;stroke:none"
             id="path4477"
             inkscape:connector-curvature="0" /><path
             d="m 3332.17,3420.65 h -499.4 v 499.4 h 499.4 v -499.4"
             style="fill:none;stroke:#000000;stroke-width:7.49100018;stroke-linecap:round;stroke-linejoin:round;stroke-miterlimit:10;stroke-dasharray:none;stroke-opacity:1"
             id="path4479"
             inkscape:connector-curvature="0" /><path
             d="m 2832.77,3420.65 h -499.4 v 499.4 h 499.4 v -499.4 0"
             style="fill:#d3d3d3;fill-opacity:1;fill-rule:evenodd;stroke:none"
             id="path4481"
             inkscape:connector-curvature="0" /><path
             d="m 2832.77,3420.65 h -499.4 v 499.4 h 499.4 v -499.4"
             style="fill:none;stroke:#000000;stroke-width:7.49100018;stroke-linecap:round;stroke-linejoin:round;stroke-miterlimit:10;stroke-dasharray:none;stroke-opacity:1"
             id="path4483"
             inkscape:connector-curvature="0" /><path
             d="m 2333.37,3920.05 v 499.4 h 499.4 v -499.4 h -499.4 v 0"
             style="fill:#d3d3d3;fill-opacity:1;fill-rule:evenodd;stroke:none"
             id="path4485"
             inkscape:connector-curvature="0" /><path
             d="m 2333.37,3920.05 v 499.4 h 499.4 v -499.4 h -499.4"
             style="fill:none;stroke:#000000;stroke-width:7.49100018;stroke-linecap:round;stroke-linejoin:round;stroke-miterlimit:10;stroke-dasharray:none;stroke-opacity:1"
             id="path4487"
             inkscape:connector-curvature="0" /></g></g></g></g></svg>