<?xml version="1.0" encoding="UTF-8" standalone="no"?>
<!-- Created with Inkscape (http://www.inkscape.org/) -->

<svg
   xmlns:dc="http://purl.org/dc/elements/1.1/"
   xmlns:cc="http://creativecommons.org/ns#"
   xmlns:rdf="http://www.w3.org/1999/02/22-rdf-syntax-ns#"
   xmlns:svg="http://www.w3.org/2000/svg"
   xmlns="http://www.w3.org/2000/svg"
   xmlns:sodipodi="http://sodipodi.sourceforge.net/DTD/sodipodi-0.dtd"
   xmlns:inkscape="http://www.inkscape.org/namespaces/inkscape"
   version="1.1"
   id="svg1102"
   xml:space="preserve"
   width="220.76587"
   height="194.00224"
   viewBox="0 0 220.76587 194.00223"
   sodipodi:docname="sierpinski-4-thin.svg"
   inkscape:version="0.92.4 (5da689c313, 2019-01-14)"><metadata
     id="metadata1108"><rdf:RDF><cc:Work
         rdf:about=""><dc:format>image/svg+xml</dc:format><dc:type
           rdf:resource="http://purl.org/dc/dcmitype/StillImage" /><dc:title></dc:title></cc:Work></rdf:RDF></metadata><defs
     id="defs1106"><clipPath
       clipPathUnits="userSpaceOnUse"
       id="clipPath1120"><path
         d="m 513.059,1810.08 h 5101.37 V 6109.92 H 513.059 Z"
         id="path1118"
         inkscape:connector-curvature="0" /></clipPath></defs><sodipodi:namedview
     pagecolor="#ffffff"
     bordercolor="#666666"
     borderopacity="1"
     objecttolerance="10"
     gridtolerance="10"
     guidetolerance="10"
     inkscape:pageopacity="0"
     inkscape:pageshadow="2"
     inkscape:window-width="1920"
     inkscape:window-height="1017"
     id="namedview1104"
     showgrid="false"
     fit-margin-top="10"
     fit-margin-bottom="10"
     fit-margin-left="10"
     fit-margin-right="10"
     inkscape:zoom="0.77226835"
     inkscape:cx="96.057177"
     inkscape:cy="125.74024"
     inkscape:window-x="-8"
     inkscape:window-y="-8"
     inkscape:window-maximized="1"
     inkscape:current-layer="g1110" /><g
     id="g1110"
     inkscape:groupmode="layer"
     inkscape:label="ink_ext_XXXXXX"
     transform="matrix(1.3333333,0,0,-1.3333333,-300.60948,629.59533)"><g
       id="g1112"
       transform="scale(0.1)"><g
         id="g1114"><g
           id="g1116"
           clip-path="url(#clipPath1120)"><path
             d="m 2333.37,3345.74 h 93.64 l -46.82,81.09 -46.82,-81.09"
             style="fill:none;stroke:#000000;stroke-width:7.49100018;stroke-linecap:round;stroke-linejoin:round;stroke-miterlimit:10;stroke-dasharray:none;stroke-opacity:1"
             id="path1122"
             inkscape:connector-curvature="0" /><path
             d="m 2427.01,3345.74 h 93.64 l -46.82,81.09 -46.82,-81.09"
             style="fill:none;stroke:#000000;stroke-width:7.49100018;stroke-linecap:round;stroke-linejoin:round;stroke-miterlimit:10;stroke-dasharray:none;stroke-opacity:1"
             id="path1124"
             inkscape:connector-curvature="0" /><path
             d="m 2473.83,3426.83 -46.82,81.09 -46.82,-81.09 h 93.64"
             style="fill:none;stroke:#000000;stroke-width:7.49100018;stroke-linecap:round;stroke-linejoin:round;stroke-miterlimit:10;stroke-dasharray:none;stroke-opacity:1"
             id="path1126"
             inkscape:connector-curvature="0" /><path
             d="m 2520.65,3345.74 h 93.64 l -46.83,81.09 -46.81,-81.09"
             style="fill:none;stroke:#000000;stroke-width:7.49100018;stroke-linecap:round;stroke-linejoin:round;stroke-miterlimit:10;stroke-dasharray:none;stroke-opacity:1"
             id="path1128"
             inkscape:connector-curvature="0" /><path
             d="m 2614.29,3345.74 h 93.63 l -46.81,81.09 -46.82,-81.09"
             style="fill:none;stroke:#000000;stroke-width:7.49100018;stroke-linecap:round;stroke-linejoin:round;stroke-miterlimit:10;stroke-dasharray:none;stroke-opacity:1"
             id="path1130"
             inkscape:connector-curvature="0" /><path
             d="m 2661.11,3426.83 -46.82,81.09 -46.83,-81.09 h 93.65"
             style="fill:none;stroke:#000000;stroke-width:7.49100018;stroke-linecap:round;stroke-linejoin:round;stroke-miterlimit:10;stroke-dasharray:none;stroke-opacity:1"
             id="path1132"
             inkscape:connector-curvature="0" /><path
             d="m 2614.29,3507.92 -46.83,81.1 -46.81,-81.1 h 93.64"
             style="fill:none;stroke:#000000;stroke-width:7.49100018;stroke-linecap:round;stroke-linejoin:round;stroke-miterlimit:10;stroke-dasharray:none;stroke-opacity:1"
             id="path1134"
             inkscape:connector-curvature="0" /><path
             d="m 2567.46,3589.02 -46.81,81.09 -46.82,-81.09 h 93.63"
             style="fill:none;stroke:#000000;stroke-width:7.49100018;stroke-linecap:round;stroke-linejoin:round;stroke-miterlimit:10;stroke-dasharray:none;stroke-opacity:1"
             id="path1136"
             inkscape:connector-curvature="0" /><path
             d="m 2473.83,3589.02 -46.82,-81.1 h 93.64 l -46.82,81.1"
             style="fill:none;stroke:#000000;stroke-width:7.49100018;stroke-linecap:round;stroke-linejoin:round;stroke-miterlimit:10;stroke-dasharray:none;stroke-opacity:1"
             id="path1138"
             inkscape:connector-curvature="0" /><path
             d="m 2707.92,3345.74 h 93.64 l -46.82,81.09 -46.82,-81.09"
             style="fill:none;stroke:#000000;stroke-width:7.49100018;stroke-linecap:round;stroke-linejoin:round;stroke-miterlimit:10;stroke-dasharray:none;stroke-opacity:1"
             id="path1140"
             inkscape:connector-curvature="0" /><path
             d="m 2801.56,3345.74 h 93.64 l -46.82,81.09 -46.82,-81.09"
             style="fill:none;stroke:#000000;stroke-width:7.49100018;stroke-linecap:round;stroke-linejoin:round;stroke-miterlimit:10;stroke-dasharray:none;stroke-opacity:1"
             id="path1142"
             inkscape:connector-curvature="0" /><path
             d="m 2848.38,3426.83 -46.82,81.09 -46.82,-81.09 h 93.64"
             style="fill:none;stroke:#000000;stroke-width:7.49100018;stroke-linecap:round;stroke-linejoin:round;stroke-miterlimit:10;stroke-dasharray:none;stroke-opacity:1"
             id="path1144"
             inkscape:connector-curvature="0" /><path
             d="m 2895.2,3345.74 h 93.64 l -46.82,81.09 -46.82,-81.09"
             style="fill:none;stroke:#000000;stroke-width:7.49100018;stroke-linecap:round;stroke-linejoin:round;stroke-miterlimit:10;stroke-dasharray:none;stroke-opacity:1"
             id="path1146"
             inkscape:connector-curvature="0" /><path
             d="m 2988.84,3345.74 h 93.63 l -46.82,81.09 -46.81,-81.09"
             style="fill:none;stroke:#000000;stroke-width:7.49100018;stroke-linecap:round;stroke-linejoin:round;stroke-miterlimit:10;stroke-dasharray:none;stroke-opacity:1"
             id="path1148"
             inkscape:connector-curvature="0" /><path
             d="m 3035.65,3426.83 -46.81,81.09 -46.82,-81.09 h 93.63"
             style="fill:none;stroke:#000000;stroke-width:7.49100018;stroke-linecap:round;stroke-linejoin:round;stroke-miterlimit:10;stroke-dasharray:none;stroke-opacity:1"
             id="path1150"
             inkscape:connector-curvature="0" /><path
             d="m 2988.84,3507.92 -46.82,81.1 -46.82,-81.1 h 93.64"
             style="fill:none;stroke:#000000;stroke-width:7.49100018;stroke-linecap:round;stroke-linejoin:round;stroke-miterlimit:10;stroke-dasharray:none;stroke-opacity:1"
             id="path1152"
             inkscape:connector-curvature="0" /><path
             d="m 2942.02,3589.02 -46.82,81.09 -46.82,-81.09 h 93.64"
             style="fill:none;stroke:#000000;stroke-width:7.49100018;stroke-linecap:round;stroke-linejoin:round;stroke-miterlimit:10;stroke-dasharray:none;stroke-opacity:1"
             id="path1154"
             inkscape:connector-curvature="0" /><path
             d="m 2848.38,3589.02 -46.82,-81.1 h 93.64 l -46.82,81.1"
             style="fill:none;stroke:#000000;stroke-width:7.49100018;stroke-linecap:round;stroke-linejoin:round;stroke-miterlimit:10;stroke-dasharray:none;stroke-opacity:1"
             id="path1156"
             inkscape:connector-curvature="0" /><path
             d="m 2895.2,3670.11 -46.82,81.09 -46.82,-81.09 h 93.64"
             style="fill:none;stroke:#000000;stroke-width:7.49100018;stroke-linecap:round;stroke-linejoin:round;stroke-miterlimit:10;stroke-dasharray:none;stroke-opacity:1"
             id="path1158"
             inkscape:connector-curvature="0" /><path
             d="m 2848.38,3751.2 -46.82,81.09 -46.82,-81.09 h 93.64"
             style="fill:none;stroke:#000000;stroke-width:7.49100018;stroke-linecap:round;stroke-linejoin:round;stroke-miterlimit:10;stroke-dasharray:none;stroke-opacity:1"
             id="path1160"
             inkscape:connector-curvature="0" /><path
             d="m 2754.74,3751.2 -46.82,-81.09 h 93.64 l -46.82,81.09"
             style="fill:none;stroke:#000000;stroke-width:7.49100018;stroke-linecap:round;stroke-linejoin:round;stroke-miterlimit:10;stroke-dasharray:none;stroke-opacity:1"
             id="path1162"
             inkscape:connector-curvature="0" /><path
             d="m 2801.56,3832.29 -46.82,81.1 -46.82,-81.1 h 93.64"
             style="fill:none;stroke:#000000;stroke-width:7.49100018;stroke-linecap:round;stroke-linejoin:round;stroke-miterlimit:10;stroke-dasharray:none;stroke-opacity:1"
             id="path1164"
             inkscape:connector-curvature="0" /><path
             d="m 2754.74,3913.39 -46.82,81.09 -46.81,-81.09 h 93.63"
             style="fill:none;stroke:#000000;stroke-width:7.49100018;stroke-linecap:round;stroke-linejoin:round;stroke-miterlimit:10;stroke-dasharray:none;stroke-opacity:1"
             id="path1166"
             inkscape:connector-curvature="0" /><path
             d="m 2661.11,3913.39 -46.82,-81.1 h 93.63 l -46.81,81.1"
             style="fill:none;stroke:#000000;stroke-width:7.49100018;stroke-linecap:round;stroke-linejoin:round;stroke-miterlimit:10;stroke-dasharray:none;stroke-opacity:1"
             id="path1168"
             inkscape:connector-curvature="0" /><path
             d="m 2614.29,3832.29 -46.83,-81.09 h 93.65 l -46.82,81.09"
             style="fill:none;stroke:#000000;stroke-width:7.49100018;stroke-linecap:round;stroke-linejoin:round;stroke-miterlimit:10;stroke-dasharray:none;stroke-opacity:1"
             id="path1170"
             inkscape:connector-curvature="0" /><path
             d="m 2567.46,3751.2 -46.81,-81.09 h 93.64 l -46.83,81.09"
             style="fill:none;stroke:#000000;stroke-width:7.49100018;stroke-linecap:round;stroke-linejoin:round;stroke-miterlimit:10;stroke-dasharray:none;stroke-opacity:1"
             id="path1172"
             inkscape:connector-curvature="0" /><path
             d="m 2614.29,3670.11 h 93.63 l -46.81,81.09 -46.82,-81.09"
             style="fill:none;stroke:#000000;stroke-width:7.49100018;stroke-linecap:round;stroke-linejoin:round;stroke-miterlimit:10;stroke-dasharray:none;stroke-opacity:1"
             id="path1174"
             inkscape:connector-curvature="0" /><path
             d="m 3082.47,3345.74 h 93.64 l -46.82,81.09 -46.82,-81.09"
             style="fill:none;stroke:#000000;stroke-width:7.49100018;stroke-linecap:round;stroke-linejoin:round;stroke-miterlimit:10;stroke-dasharray:none;stroke-opacity:1"
             id="path1176"
             inkscape:connector-curvature="0" /><path
             d="m 3176.11,3345.74 h 93.64 l -46.82,81.09 -46.82,-81.09"
             style="fill:none;stroke:#000000;stroke-width:7.49100018;stroke-linecap:round;stroke-linejoin:round;stroke-miterlimit:10;stroke-dasharray:none;stroke-opacity:1"
             id="path1178"
             inkscape:connector-curvature="0" /><path
             d="m 3222.93,3426.83 -46.82,81.09 -46.82,-81.09 h 93.64"
             style="fill:none;stroke:#000000;stroke-width:7.49100018;stroke-linecap:round;stroke-linejoin:round;stroke-miterlimit:10;stroke-dasharray:none;stroke-opacity:1"
             id="path1180"
             inkscape:connector-curvature="0" /><path
             d="m 3269.75,3345.74 h 93.64 l -46.82,81.09 -46.82,-81.09"
             style="fill:none;stroke:#000000;stroke-width:7.49100018;stroke-linecap:round;stroke-linejoin:round;stroke-miterlimit:10;stroke-dasharray:none;stroke-opacity:1"
             id="path1182"
             inkscape:connector-curvature="0" /><path
             d="m 3363.39,3345.74 h 93.63 l -46.82,81.09 -46.81,-81.09"
             style="fill:none;stroke:#000000;stroke-width:7.49100018;stroke-linecap:round;stroke-linejoin:round;stroke-miterlimit:10;stroke-dasharray:none;stroke-opacity:1"
             id="path1184"
             inkscape:connector-curvature="0" /><path
             d="m 3410.2,3426.83 -46.81,81.09 -46.82,-81.09 h 93.63"
             style="fill:none;stroke:#000000;stroke-width:7.49100018;stroke-linecap:round;stroke-linejoin:round;stroke-miterlimit:10;stroke-dasharray:none;stroke-opacity:1"
             id="path1186"
             inkscape:connector-curvature="0" /><path
             d="m 3363.39,3507.92 -46.82,81.1 -46.82,-81.1 h 93.64"
             style="fill:none;stroke:#000000;stroke-width:7.49100018;stroke-linecap:round;stroke-linejoin:round;stroke-miterlimit:10;stroke-dasharray:none;stroke-opacity:1"
             id="path1188"
             inkscape:connector-curvature="0" /><path
             d="m 3316.57,3589.02 -46.82,81.09 -46.82,-81.09 h 93.64"
             style="fill:none;stroke:#000000;stroke-width:7.49100018;stroke-linecap:round;stroke-linejoin:round;stroke-miterlimit:10;stroke-dasharray:none;stroke-opacity:1"
             id="path1190"
             inkscape:connector-curvature="0" /><path
             d="m 3222.93,3589.02 -46.82,-81.1 h 93.64 l -46.82,81.1"
             style="fill:none;stroke:#000000;stroke-width:7.49100018;stroke-linecap:round;stroke-linejoin:round;stroke-miterlimit:10;stroke-dasharray:none;stroke-opacity:1"
             id="path1192"
             inkscape:connector-curvature="0" /><path
             d="m 3457.02,3345.74 h 93.64 l -46.82,81.09 -46.82,-81.09"
             style="fill:none;stroke:#000000;stroke-width:7.49100018;stroke-linecap:round;stroke-linejoin:round;stroke-miterlimit:10;stroke-dasharray:none;stroke-opacity:1"
             id="path1194"
             inkscape:connector-curvature="0" /><path
             d="m 3550.66,3345.74 h 93.64 l -46.82,81.09 -46.82,-81.09"
             style="fill:none;stroke:#000000;stroke-width:7.49100018;stroke-linecap:round;stroke-linejoin:round;stroke-miterlimit:10;stroke-dasharray:none;stroke-opacity:1"
             id="path1196"
             inkscape:connector-curvature="0" /><path
             d="m 3597.48,3426.83 -46.82,81.09 -46.82,-81.09 h 93.64"
             style="fill:none;stroke:#000000;stroke-width:7.49100018;stroke-linecap:round;stroke-linejoin:round;stroke-miterlimit:10;stroke-dasharray:none;stroke-opacity:1"
             id="path1198"
             inkscape:connector-curvature="0" /><path
             d="m 3644.3,3345.74 h 93.64 l -46.82,81.09 -46.82,-81.09"
             style="fill:none;stroke:#000000;stroke-width:7.49100018;stroke-linecap:round;stroke-linejoin:round;stroke-miterlimit:10;stroke-dasharray:none;stroke-opacity:1"
             id="path1200"
             inkscape:connector-curvature="0" /><path
             d="m 3737.94,3345.74 h 93.63 l -46.82,81.09 -46.81,-81.09"
             style="fill:none;stroke:#000000;stroke-width:7.49100018;stroke-linecap:round;stroke-linejoin:round;stroke-miterlimit:10;stroke-dasharray:none;stroke-opacity:1"
             id="path1202"
             inkscape:connector-curvature="0" /><path
             d="m 3784.75,3426.83 -46.81,81.09 -46.82,-81.09 h 93.63"
             style="fill:none;stroke:#000000;stroke-width:7.49100018;stroke-linecap:round;stroke-linejoin:round;stroke-miterlimit:10;stroke-dasharray:none;stroke-opacity:1"
             id="path1204"
             inkscape:connector-curvature="0" /><path
             d="m 3737.94,3507.92 -46.82,81.1 -46.82,-81.1 h 93.64"
             style="fill:none;stroke:#000000;stroke-width:7.49100018;stroke-linecap:round;stroke-linejoin:round;stroke-miterlimit:10;stroke-dasharray:none;stroke-opacity:1"
             id="path1206"
             inkscape:connector-curvature="0" /><path
             d="m 3691.12,3589.02 -46.82,81.09 -46.82,-81.09 h 93.64"
             style="fill:none;stroke:#000000;stroke-width:7.49100018;stroke-linecap:round;stroke-linejoin:round;stroke-miterlimit:10;stroke-dasharray:none;stroke-opacity:1"
             id="path1208"
             inkscape:connector-curvature="0" /><path
             d="m 3597.48,3589.02 -46.82,-81.1 h 93.64 l -46.82,81.1"
             style="fill:none;stroke:#000000;stroke-width:7.49100018;stroke-linecap:round;stroke-linejoin:round;stroke-miterlimit:10;stroke-dasharray:none;stroke-opacity:1"
             id="path1210"
             inkscape:connector-curvature="0" /><path
             d="m 3644.3,3670.11 -46.82,81.09 -46.82,-81.09 h 93.64"
             style="fill:none;stroke:#000000;stroke-width:7.49100018;stroke-linecap:round;stroke-linejoin:round;stroke-miterlimit:10;stroke-dasharray:none;stroke-opacity:1"
             id="path1212"
             inkscape:connector-curvature="0" /><path
             d="m 3597.48,3751.2 -46.82,81.09 -46.82,-81.09 h 93.64"
             style="fill:none;stroke:#000000;stroke-width:7.49100018;stroke-linecap:round;stroke-linejoin:round;stroke-miterlimit:10;stroke-dasharray:none;stroke-opacity:1"
             id="path1214"
             inkscape:connector-curvature="0" /><path
             d="m 3503.84,3751.2 -46.82,-81.09 h 93.64 l -46.82,81.09"
             style="fill:none;stroke:#000000;stroke-width:7.49100018;stroke-linecap:round;stroke-linejoin:round;stroke-miterlimit:10;stroke-dasharray:none;stroke-opacity:1"
             id="path1216"
             inkscape:connector-curvature="0" /><path
             d="m 3550.66,3832.29 -46.82,81.1 -46.82,-81.1 h 93.64"
             style="fill:none;stroke:#000000;stroke-width:7.49100018;stroke-linecap:round;stroke-linejoin:round;stroke-miterlimit:10;stroke-dasharray:none;stroke-opacity:1"
             id="path1218"
             inkscape:connector-curvature="0" /><path
             d="m 3503.84,3913.39 -46.82,81.09 -46.82,-81.09 h 93.64"
             style="fill:none;stroke:#000000;stroke-width:7.49100018;stroke-linecap:round;stroke-linejoin:round;stroke-miterlimit:10;stroke-dasharray:none;stroke-opacity:1"
             id="path1220"
             inkscape:connector-curvature="0" /><path
             d="m 3410.2,3913.39 -46.81,-81.1 h 93.63 l -46.82,81.1"
             style="fill:none;stroke:#000000;stroke-width:7.49100018;stroke-linecap:round;stroke-linejoin:round;stroke-miterlimit:10;stroke-dasharray:none;stroke-opacity:1"
             id="path1222"
             inkscape:connector-curvature="0" /><path
             d="m 3363.39,3832.29 -46.82,-81.09 h 93.63 l -46.81,81.09"
             style="fill:none;stroke:#000000;stroke-width:7.49100018;stroke-linecap:round;stroke-linejoin:round;stroke-miterlimit:10;stroke-dasharray:none;stroke-opacity:1"
             id="path1224"
             inkscape:connector-curvature="0" /><path
             d="m 3316.57,3751.2 -46.82,-81.09 h 93.64 l -46.82,81.09"
             style="fill:none;stroke:#000000;stroke-width:7.49100018;stroke-linecap:round;stroke-linejoin:round;stroke-miterlimit:10;stroke-dasharray:none;stroke-opacity:1"
             id="path1226"
             inkscape:connector-curvature="0" /><path
             d="m 3363.39,3670.11 h 93.63 l -46.82,81.09 -46.81,-81.09"
             style="fill:none;stroke:#000000;stroke-width:7.49100018;stroke-linecap:round;stroke-linejoin:round;stroke-miterlimit:10;stroke-dasharray:none;stroke-opacity:1"
             id="path1228"
             inkscape:connector-curvature="0" /><path
             d="m 3457.02,3994.48 -46.82,81.09 -46.81,-81.09 h 93.63"
             style="fill:none;stroke:#000000;stroke-width:7.49100018;stroke-linecap:round;stroke-linejoin:round;stroke-miterlimit:10;stroke-dasharray:none;stroke-opacity:1"
             id="path1230"
             inkscape:connector-curvature="0" /><path
             d="m 3410.2,4075.57 -46.81,81.09 -46.82,-81.09 h 93.63"
             style="fill:none;stroke:#000000;stroke-width:7.49100018;stroke-linecap:round;stroke-linejoin:round;stroke-miterlimit:10;stroke-dasharray:none;stroke-opacity:1"
             id="path1232"
             inkscape:connector-curvature="0" /><path
             d="m 3316.57,4075.57 -46.82,-81.09 h 93.64 l -46.82,81.09"
             style="fill:none;stroke:#000000;stroke-width:7.49100018;stroke-linecap:round;stroke-linejoin:round;stroke-miterlimit:10;stroke-dasharray:none;stroke-opacity:1"
             id="path1234"
             inkscape:connector-curvature="0" /><path
             d="m 3363.39,4156.66 -46.82,81.09 -46.82,-81.09 h 93.64"
             style="fill:none;stroke:#000000;stroke-width:7.49100018;stroke-linecap:round;stroke-linejoin:round;stroke-miterlimit:10;stroke-dasharray:none;stroke-opacity:1"
             id="path1236"
             inkscape:connector-curvature="0" /><path
             d="m 3316.57,4237.75 -46.82,81.1 -46.82,-81.1 h 93.64"
             style="fill:none;stroke:#000000;stroke-width:7.49100018;stroke-linecap:round;stroke-linejoin:round;stroke-miterlimit:10;stroke-dasharray:none;stroke-opacity:1"
             id="path1238"
             inkscape:connector-curvature="0" /><path
             d="m 3222.93,4237.75 -46.82,-81.09 h 93.64 l -46.82,81.09"
             style="fill:none;stroke:#000000;stroke-width:7.49100018;stroke-linecap:round;stroke-linejoin:round;stroke-miterlimit:10;stroke-dasharray:none;stroke-opacity:1"
             id="path1240"
             inkscape:connector-curvature="0" /><path
             d="m 3176.11,4156.66 -46.82,-81.09 h 93.64 l -46.82,81.09"
             style="fill:none;stroke:#000000;stroke-width:7.49100018;stroke-linecap:round;stroke-linejoin:round;stroke-miterlimit:10;stroke-dasharray:none;stroke-opacity:1"
             id="path1242"
             inkscape:connector-curvature="0" /><path
             d="m 3129.29,4075.57 -46.82,-81.09 h 93.64 l -46.82,81.09"
             style="fill:none;stroke:#000000;stroke-width:7.49100018;stroke-linecap:round;stroke-linejoin:round;stroke-miterlimit:10;stroke-dasharray:none;stroke-opacity:1"
             id="path1244"
             inkscape:connector-curvature="0" /><path
             d="m 3176.11,3994.48 h 93.64 l -46.82,81.09 -46.82,-81.09"
             style="fill:none;stroke:#000000;stroke-width:7.49100018;stroke-linecap:round;stroke-linejoin:round;stroke-miterlimit:10;stroke-dasharray:none;stroke-opacity:1"
             id="path1246"
             inkscape:connector-curvature="0" /><path
             d="m 3269.75,4318.85 -46.82,81.09 -46.82,-81.09 h 93.64"
             style="fill:none;stroke:#000000;stroke-width:7.49100018;stroke-linecap:round;stroke-linejoin:round;stroke-miterlimit:10;stroke-dasharray:none;stroke-opacity:1"
             id="path1248"
             inkscape:connector-curvature="0" /><path
             d="m 3222.93,4399.94 -46.82,81.09 -46.82,-81.09 h 93.64"
             style="fill:none;stroke:#000000;stroke-width:7.49100018;stroke-linecap:round;stroke-linejoin:round;stroke-miterlimit:10;stroke-dasharray:none;stroke-opacity:1"
             id="path1250"
             inkscape:connector-curvature="0" /><path
             d="m 3129.29,4399.94 -46.82,-81.09 h 93.64 l -46.82,81.09"
             style="fill:none;stroke:#000000;stroke-width:7.49100018;stroke-linecap:round;stroke-linejoin:round;stroke-miterlimit:10;stroke-dasharray:none;stroke-opacity:1"
             id="path1252"
             inkscape:connector-curvature="0" /><path
             d="m 3176.11,4481.03 -46.82,81.1 -46.82,-81.1 h 93.64"
             style="fill:none;stroke:#000000;stroke-width:7.49100018;stroke-linecap:round;stroke-linejoin:round;stroke-miterlimit:10;stroke-dasharray:none;stroke-opacity:1"
             id="path1254"
             inkscape:connector-curvature="0" /><path
             d="m 3129.29,4562.13 -46.82,81.09 -46.82,-81.09 h 93.64"
             style="fill:none;stroke:#000000;stroke-width:7.49100018;stroke-linecap:round;stroke-linejoin:round;stroke-miterlimit:10;stroke-dasharray:none;stroke-opacity:1"
             id="path1256"
             inkscape:connector-curvature="0" /><path
             d="m 3035.65,4562.13 -46.81,-81.1 h 93.63 l -46.82,81.1"
             style="fill:none;stroke:#000000;stroke-width:7.49100018;stroke-linecap:round;stroke-linejoin:round;stroke-miterlimit:10;stroke-dasharray:none;stroke-opacity:1"
             id="path1258"
             inkscape:connector-curvature="0" /><path
             d="m 2988.84,4481.03 -46.82,-81.09 h 93.63 l -46.81,81.09"
             style="fill:none;stroke:#000000;stroke-width:7.49100018;stroke-linecap:round;stroke-linejoin:round;stroke-miterlimit:10;stroke-dasharray:none;stroke-opacity:1"
             id="path1260"
             inkscape:connector-curvature="0" /><path
             d="m 2942.02,4399.94 -46.82,-81.09 h 93.64 l -46.82,81.09"
             style="fill:none;stroke:#000000;stroke-width:7.49100018;stroke-linecap:round;stroke-linejoin:round;stroke-miterlimit:10;stroke-dasharray:none;stroke-opacity:1"
             id="path1262"
             inkscape:connector-curvature="0" /><path
             d="m 2988.84,4318.85 h 93.63 l -46.82,81.09 -46.81,-81.09"
             style="fill:none;stroke:#000000;stroke-width:7.49100018;stroke-linecap:round;stroke-linejoin:round;stroke-miterlimit:10;stroke-dasharray:none;stroke-opacity:1"
             id="path1264"
             inkscape:connector-curvature="0" /><path
             d="m 2895.2,4318.85 -46.82,-81.1 h 93.64 l -46.82,81.1"
             style="fill:none;stroke:#000000;stroke-width:7.49100018;stroke-linecap:round;stroke-linejoin:round;stroke-miterlimit:10;stroke-dasharray:none;stroke-opacity:1"
             id="path1266"
             inkscape:connector-curvature="0" /><path
             d="m 2848.38,4237.75 -46.82,-81.09 h 93.64 l -46.82,81.09"
             style="fill:none;stroke:#000000;stroke-width:7.49100018;stroke-linecap:round;stroke-linejoin:round;stroke-miterlimit:10;stroke-dasharray:none;stroke-opacity:1"
             id="path1268"
             inkscape:connector-curvature="0" /><path
             d="m 2895.2,4156.66 h 93.64 l -46.82,81.09 -46.82,-81.09"
             style="fill:none;stroke:#000000;stroke-width:7.49100018;stroke-linecap:round;stroke-linejoin:round;stroke-miterlimit:10;stroke-dasharray:none;stroke-opacity:1"
             id="path1270"
             inkscape:connector-curvature="0" /><path
             d="m 2801.56,4156.66 -46.82,-81.09 h 93.64 l -46.82,81.09"
             style="fill:none;stroke:#000000;stroke-width:7.49100018;stroke-linecap:round;stroke-linejoin:round;stroke-miterlimit:10;stroke-dasharray:none;stroke-opacity:1"
             id="path1272"
             inkscape:connector-curvature="0" /><path
             d="m 2754.74,4075.57 -46.82,-81.09 h 93.64 l -46.82,81.09"
             style="fill:none;stroke:#000000;stroke-width:7.49100018;stroke-linecap:round;stroke-linejoin:round;stroke-miterlimit:10;stroke-dasharray:none;stroke-opacity:1"
             id="path1274"
             inkscape:connector-curvature="0" /><path
             d="m 2801.56,3994.48 h 93.64 l -46.82,81.09 -46.82,-81.09"
             style="fill:none;stroke:#000000;stroke-width:7.49100018;stroke-linecap:round;stroke-linejoin:round;stroke-miterlimit:10;stroke-dasharray:none;stroke-opacity:1"
             id="path1276"
             inkscape:connector-curvature="0" /><path
             d="m 2895.2,3994.48 h 93.64 l -46.82,81.09 -46.82,-81.09"
             style="fill:none;stroke:#000000;stroke-width:7.49100018;stroke-linecap:round;stroke-linejoin:round;stroke-miterlimit:10;stroke-dasharray:none;stroke-opacity:1"
             id="path1278"
             inkscape:connector-curvature="0" /><path
             d="m 2988.84,3994.48 h 93.63 l -46.82,81.09 -46.81,-81.09"
             style="fill:none;stroke:#000000;stroke-width:7.49100018;stroke-linecap:round;stroke-linejoin:round;stroke-miterlimit:10;stroke-dasharray:none;stroke-opacity:1"
             id="path1280"
             inkscape:connector-curvature="0" /><path
             d="m 3035.65,4075.57 -46.81,81.09 -46.82,-81.09 h 93.63"
             style="fill:none;stroke:#000000;stroke-width:7.49100018;stroke-linecap:round;stroke-linejoin:round;stroke-miterlimit:10;stroke-dasharray:none;stroke-opacity:1"
             id="path1282"
             inkscape:connector-curvature="0" /></g></g></g></g></svg>