<?xml version="1.0" encoding="UTF-8" standalone="no"?>
<!-- Created with Inkscape (http://www.inkscape.org/) -->

<svg
   xmlns:dc="http://purl.org/dc/elements/1.1/"
   xmlns:cc="http://creativecommons.org/ns#"
   xmlns:rdf="http://www.w3.org/1999/02/22-rdf-syntax-ns#"
   xmlns:svg="http://www.w3.org/2000/svg"
   xmlns="http://www.w3.org/2000/svg"
   xmlns:sodipodi="http://sodipodi.sourceforge.net/DTD/sodipodi-0.dtd"
   xmlns:inkscape="http://www.inkscape.org/namespaces/inkscape"
   version="1.1"
   id="svg772"
   xml:space="preserve"
   width="221.77174"
   height="195.00716"
   viewBox="0 0 221.77174 195.00715"
   sodipodi:docname="sierpinski-3.svg"
   inkscape:version="0.92.4 (5da689c313, 2019-01-14)"><metadata
     id="metadata778"><rdf:RDF><cc:Work
         rdf:about=""><dc:format>image/svg+xml</dc:format><dc:type
           rdf:resource="http://purl.org/dc/dcmitype/StillImage" /><dc:title></dc:title></cc:Work></rdf:RDF></metadata><defs
     id="defs776"><clipPath
       clipPathUnits="userSpaceOnUse"
       id="clipPath790"><path
         d="m 513.059,1810.08 h 5101.37 V 6109.92 H 513.059 Z"
         id="path788"
         inkscape:connector-curvature="0" /></clipPath></defs><sodipodi:namedview
     pagecolor="#ffffff"
     bordercolor="#666666"
     borderopacity="1"
     objecttolerance="10"
     gridtolerance="10"
     guidetolerance="10"
     inkscape:pageopacity="0"
     inkscape:pageshadow="2"
     inkscape:window-width="1920"
     inkscape:window-height="1017"
     id="namedview774"
     showgrid="false"
     fit-margin-top="10"
     fit-margin-bottom="10"
     fit-margin-left="10"
     fit-margin-right="10"
     inkscape:zoom="0.77226835"
     inkscape:cx="96.56369"
     inkscape:cy="126.2458"
     inkscape:window-x="-8"
     inkscape:window-y="-8"
     inkscape:window-maximized="1"
     inkscape:current-layer="g780" /><g
     id="g780"
     inkscape:groupmode="layer"
     inkscape:label="ink_ext_XXXXXX"
     transform="matrix(1.3333333,0,0,-1.3333333,-300.10297,630.09468)"><g
       id="g782"
       transform="scale(0.1)"><g
         id="g784"><g
           id="g786"
           clip-path="url(#clipPath790)"><path
             d="m 2333.37,3345.74 h 187.28 l -93.64,162.18 -93.64,-162.18"
             style="fill:none;stroke:#000000;stroke-width:14.98200035;stroke-linecap:round;stroke-linejoin:round;stroke-miterlimit:10;stroke-dasharray:none;stroke-opacity:1"
             id="path792"
             inkscape:connector-curvature="0" /><path
             d="m 2520.65,3345.74 h 187.27 l -93.63,162.18 -93.64,-162.18"
             style="fill:none;stroke:#000000;stroke-width:14.98200035;stroke-linecap:round;stroke-linejoin:round;stroke-miterlimit:10;stroke-dasharray:none;stroke-opacity:1"
             id="path794"
             inkscape:connector-curvature="0" /><path
             d="m 2614.29,3507.92 -93.64,162.19 -93.64,-162.19 h 187.28"
             style="fill:none;stroke:#000000;stroke-width:14.98200035;stroke-linecap:round;stroke-linejoin:round;stroke-miterlimit:10;stroke-dasharray:none;stroke-opacity:1"
             id="path796"
             inkscape:connector-curvature="0" /><path
             d="m 2707.92,3345.74 h 187.28 l -93.64,162.18 -93.64,-162.18"
             style="fill:none;stroke:#000000;stroke-width:14.98200035;stroke-linecap:round;stroke-linejoin:round;stroke-miterlimit:10;stroke-dasharray:none;stroke-opacity:1"
             id="path798"
             inkscape:connector-curvature="0" /><path
             d="m 2895.2,3345.74 h 187.27 l -93.63,162.18 -93.64,-162.18"
             style="fill:none;stroke:#000000;stroke-width:14.98200035;stroke-linecap:round;stroke-linejoin:round;stroke-miterlimit:10;stroke-dasharray:none;stroke-opacity:1"
             id="path800"
             inkscape:connector-curvature="0" /><path
             d="m 2988.84,3507.92 -93.64,162.19 -93.64,-162.19 h 187.28"
             style="fill:none;stroke:#000000;stroke-width:14.98200035;stroke-linecap:round;stroke-linejoin:round;stroke-miterlimit:10;stroke-dasharray:none;stroke-opacity:1"
             id="path802"
             inkscape:connector-curvature="0" /><path
             d="m 2895.2,3670.11 -93.64,162.18 -93.64,-162.18 h 187.28"
             style="fill:none;stroke:#000000;stroke-width:14.98200035;stroke-linecap:round;stroke-linejoin:round;stroke-miterlimit:10;stroke-dasharray:none;stroke-opacity:1"
             id="path804"
             inkscape:connector-curvature="0" /><path
             d="m 2801.56,3832.29 -93.64,162.19 -93.63,-162.19 h 187.27"
             style="fill:none;stroke:#000000;stroke-width:14.98200035;stroke-linecap:round;stroke-linejoin:round;stroke-miterlimit:10;stroke-dasharray:none;stroke-opacity:1"
             id="path806"
             inkscape:connector-curvature="0" /><path
             d="m 2614.29,3832.29 -93.64,-162.18 h 187.27 l -93.63,162.18"
             style="fill:none;stroke:#000000;stroke-width:14.98200035;stroke-linecap:round;stroke-linejoin:round;stroke-miterlimit:10;stroke-dasharray:none;stroke-opacity:1"
             id="path808"
             inkscape:connector-curvature="0" /><path
             d="m 3082.47,3345.74 h 187.28 l -93.64,162.18 -93.64,-162.18"
             style="fill:none;stroke:#000000;stroke-width:14.98200035;stroke-linecap:round;stroke-linejoin:round;stroke-miterlimit:10;stroke-dasharray:none;stroke-opacity:1"
             id="path810"
             inkscape:connector-curvature="0" /><path
             d="m 3269.75,3345.74 h 187.27 l -93.63,162.18 -93.64,-162.18"
             style="fill:none;stroke:#000000;stroke-width:14.98200035;stroke-linecap:round;stroke-linejoin:round;stroke-miterlimit:10;stroke-dasharray:none;stroke-opacity:1"
             id="path812"
             inkscape:connector-curvature="0" /><path
             d="m 3363.39,3507.92 -93.64,162.19 -93.64,-162.19 h 187.28"
             style="fill:none;stroke:#000000;stroke-width:14.98200035;stroke-linecap:round;stroke-linejoin:round;stroke-miterlimit:10;stroke-dasharray:none;stroke-opacity:1"
             id="path814"
             inkscape:connector-curvature="0" /><path
             d="m 3457.02,3345.74 h 187.28 l -93.64,162.18 -93.64,-162.18"
             style="fill:none;stroke:#000000;stroke-width:14.98200035;stroke-linecap:round;stroke-linejoin:round;stroke-miterlimit:10;stroke-dasharray:none;stroke-opacity:1"
             id="path816"
             inkscape:connector-curvature="0" /><path
             d="m 3644.3,3345.74 h 187.27 l -93.63,162.18 -93.64,-162.18"
             style="fill:none;stroke:#000000;stroke-width:14.98200035;stroke-linecap:round;stroke-linejoin:round;stroke-miterlimit:10;stroke-dasharray:none;stroke-opacity:1"
             id="path818"
             inkscape:connector-curvature="0" /><path
             d="m 3737.94,3507.92 -93.64,162.19 -93.64,-162.19 h 187.28"
             style="fill:none;stroke:#000000;stroke-width:14.98200035;stroke-linecap:round;stroke-linejoin:round;stroke-miterlimit:10;stroke-dasharray:none;stroke-opacity:1"
             id="path820"
             inkscape:connector-curvature="0" /><path
             d="m 3644.3,3670.11 -93.64,162.18 -93.64,-162.18 h 187.28"
             style="fill:none;stroke:#000000;stroke-width:14.98200035;stroke-linecap:round;stroke-linejoin:round;stroke-miterlimit:10;stroke-dasharray:none;stroke-opacity:1"
             id="path822"
             inkscape:connector-curvature="0" /><path
             d="m 3550.66,3832.29 -93.64,162.19 -93.63,-162.19 h 187.27"
             style="fill:none;stroke:#000000;stroke-width:14.98200035;stroke-linecap:round;stroke-linejoin:round;stroke-miterlimit:10;stroke-dasharray:none;stroke-opacity:1"
             id="path824"
             inkscape:connector-curvature="0" /><path
             d="m 3363.39,3832.29 -93.64,-162.18 h 187.27 l -93.63,162.18"
             style="fill:none;stroke:#000000;stroke-width:14.98200035;stroke-linecap:round;stroke-linejoin:round;stroke-miterlimit:10;stroke-dasharray:none;stroke-opacity:1"
             id="path826"
             inkscape:connector-curvature="0" /><path
             d="m 3457.02,3994.48 -93.63,162.18 -93.64,-162.18 h 187.27"
             style="fill:none;stroke:#000000;stroke-width:14.98200035;stroke-linecap:round;stroke-linejoin:round;stroke-miterlimit:10;stroke-dasharray:none;stroke-opacity:1"
             id="path828"
             inkscape:connector-curvature="0" /><path
             d="m 3363.39,4156.66 -93.64,162.19 -93.64,-162.19 h 187.28"
             style="fill:none;stroke:#000000;stroke-width:14.98200035;stroke-linecap:round;stroke-linejoin:round;stroke-miterlimit:10;stroke-dasharray:none;stroke-opacity:1"
             id="path830"
             inkscape:connector-curvature="0" /><path
             d="m 3176.11,4156.66 -93.64,-162.18 h 187.28 l -93.64,162.18"
             style="fill:none;stroke:#000000;stroke-width:14.98200035;stroke-linecap:round;stroke-linejoin:round;stroke-miterlimit:10;stroke-dasharray:none;stroke-opacity:1"
             id="path832"
             inkscape:connector-curvature="0" /><path
             d="m 3269.75,4318.85 -93.64,162.18 -93.64,-162.18 h 187.28"
             style="fill:none;stroke:#000000;stroke-width:14.98200035;stroke-linecap:round;stroke-linejoin:round;stroke-miterlimit:10;stroke-dasharray:none;stroke-opacity:1"
             id="path834"
             inkscape:connector-curvature="0" /><path
             d="m 3176.11,4481.03 -93.64,162.19 -93.63,-162.19 h 187.27"
             style="fill:none;stroke:#000000;stroke-width:14.98200035;stroke-linecap:round;stroke-linejoin:round;stroke-miterlimit:10;stroke-dasharray:none;stroke-opacity:1"
             id="path836"
             inkscape:connector-curvature="0" /><path
             d="m 2988.84,4481.03 -93.64,-162.18 h 187.27 l -93.63,162.18"
             style="fill:none;stroke:#000000;stroke-width:14.98200035;stroke-linecap:round;stroke-linejoin:round;stroke-miterlimit:10;stroke-dasharray:none;stroke-opacity:1"
             id="path838"
             inkscape:connector-curvature="0" /><path
             d="m 2895.2,4318.85 -93.64,-162.19 h 187.28 l -93.64,162.19"
             style="fill:none;stroke:#000000;stroke-width:14.98200035;stroke-linecap:round;stroke-linejoin:round;stroke-miterlimit:10;stroke-dasharray:none;stroke-opacity:1"
             id="path840"
             inkscape:connector-curvature="0" /><path
             d="m 2801.56,4156.66 -93.64,-162.18 h 187.28 l -93.64,162.18"
             style="fill:none;stroke:#000000;stroke-width:14.98200035;stroke-linecap:round;stroke-linejoin:round;stroke-miterlimit:10;stroke-dasharray:none;stroke-opacity:1"
             id="path842"
             inkscape:connector-curvature="0" /><path
             d="m 2895.2,3994.48 h 187.27 l -93.63,162.18 -93.64,-162.18"
             style="fill:none;stroke:#000000;stroke-width:14.98200035;stroke-linecap:round;stroke-linejoin:round;stroke-miterlimit:10;stroke-dasharray:none;stroke-opacity:1"
             id="path844"
             inkscape:connector-curvature="0" /></g></g></g></g></svg>